<?xml version="1.0" encoding="UTF-8" standalone="no"?>
<!-- Created with Inkscape (http://www.inkscape.org/) -->

<svg
   width="74mm"
   height="105mm"
   viewBox="0 0 74 105"
   version="1.1"
   id="svg5"
   inkscape:version="1.2.2 (b0a8486541, 2022-12-01)"
   sodipodi:docname="in05.svg"
   xml:space="preserve"
   xmlns:inkscape="http://www.inkscape.org/namespaces/inkscape"
   xmlns:sodipodi="http://sodipodi.sourceforge.net/DTD/sodipodi-0.dtd"
   xmlns:xlink="http://www.w3.org/1999/xlink"
   xmlns="http://www.w3.org/2000/svg"
   xmlns:svg="http://www.w3.org/2000/svg"><sodipodi:namedview
     id="namedview7"
     pagecolor="#ffffff"
     bordercolor="#666666"
     borderopacity="1.0"
     inkscape:pageshadow="2"
     inkscape:pageopacity="0.0"
     inkscape:pagecheckerboard="0"
     inkscape:document-units="mm"
     showgrid="false"
     inkscape:zoom="2.0989208"
     inkscape:cx="110.29478"
     inkscape:cy="172.94602"
     inkscape:window-width="1920"
     inkscape:window-height="1011"
     inkscape:window-x="3840"
     inkscape:window-y="32"
     inkscape:window-maximized="1"
     inkscape:current-layer="layer1"
     inkscape:showpageshadow="2"
     inkscape:deskcolor="#d1d1d1" /><defs
     id="defs2"><rect
       x="300.5096"
       y="232.808"
       width="44.906144"
       height="35.642901"
       id="rect3692" /><rect
       x="31.304922"
       y="204.96759"
       width="205.86257"
       height="146.30523"
       id="rect17087" /></defs><g
     inkscape:label="Layer 1"
     inkscape:groupmode="layer"
     id="layer1"
     style="display:inline"><rect
       style="fill:#ffffff;stroke:#000000;stroke-width:0.298259;stroke-miterlimit:4;stroke-dasharray:none"
       id="rect846"
       width="65"
       height="93.900375"
       x="4.5"
       y="5.5498133"
       rx="5.1956244"
       ry="0"
       inkscape:export-filename="in05.png"
       inkscape:export-xdpi="622.37488"
       inkscape:export-ydpi="622.37488" /><rect
       style="fill:#000000;stroke:none;stroke-width:0.470152"
       id="rect964"
       width="60.851757"
       height="89.722946"
       x="6.5741215"
       y="7.6385288"
       rx="3.9244702"
       ry="4.0016785" /><rect
       style="fill:#d7d7f4;stroke:none;stroke-width:0.475741"
       id="rect1717"
       width="56.906704"
       height="41.42675"
       x="8.546648"
       y="54.198826"
       ry="3.0964251" /><text
       xml:space="preserve"
       transform="matrix(0.26458333,0,0,0.26458333,1.3068987,1.6405857)"
       id="text17085"
       style="font-style:normal;font-weight:normal;font-size:8px;line-height:1.15;font-family:sans-serif;letter-spacing:0px;word-spacing:0px;white-space:pre;shape-inside:url(#rect17087);display:inline;fill:#000000;fill-opacity:1;stroke:none"
       x="0"
       y="0"><tspan
         x="31.304688"
         y="211.8458"
         id="tspan660"><tspan
           dx="0 0 0 0 0 0.41473961 0 0 0.41474152"
           style="font-weight:bold;text-align:justify"
           id="tspan656">cAPI :: Kind</tspan><tspan
           dx="0 0.41474152 0 0 0 0 0 0 0 0 0 0 0 0 0 0 0.41474533 0 0 0 0.4147377 0 0 0 0.41473007 0 0 0.41474533"
           style="font-family:monospace;-inkscape-font-specification:monospace;text-align:justify"
           id="tspan658"> Suizid-Trigger bei mir im Dialog </tspan></tspan><tspan
         x="31.304688"
         y="221.0458"
         id="tspan664"><tspan
           dx="0 0 0 0 0 0 0 0 0 0 6.6126328 0 0 0 0 0 0 6.6126328 0 0 6.6126404 0 0 0 0 0 0 6.6126251 0 0 0 6.6126404"
           style="font-family:monospace;-inkscape-font-specification:monospace;text-align:justify"
           id="tspan662">aktiviert worden im Dialog mit einem </tspan></tspan><tspan
         x="31.304688"
         y="230.24579"
         id="tspan668"><tspan
           style="font-family:monospace;-inkscape-font-specification:monospace;text-align:justify"
           id="tspan666">Mensch der gar nichts damit zu tun hat.
</tspan></tspan><tspan
         x="31.304688"
         y="239.44579"
         id="tspan672"><tspan
           style="font-family:monospace;-inkscape-font-specification:monospace;text-align:justify"
           id="tspan670">
</tspan></tspan><tspan
         x="31.304688"
         y="248.64579"
         id="tspan676"><tspan
           dx="0 0 0 0 0 0.60902214 0 0 0 0.60902405 0 0 0 0 0 0 0 0.60902405 0 0 0 0 0 0.60902405 0 0 0 0 0 0.60902405 0 0 0 0.60902405 0 0 0 0 0.60902405"
           style="font-family:monospace;-inkscape-font-specification:monospace;text-align:justify"
           id="tspan674">Nach dem zweiten lesen fällt mir erst auf, </tspan></tspan><tspan
         x="31.304688"
         y="257.84578"
         id="tspan680"><tspan
           style="font-family:monospace;-inkscape-font-specification:monospace;text-align:justify"
           id="tspan678">dass da mit und nicht als steht.
</tspan></tspan><tspan
         x="31.304688"
         y="267.04578"
         id="tspan684"><tspan
           style="font-family:monospace;-inkscape-font-specification:monospace;text-align:justify"
           id="tspan682">
</tspan></tspan><tspan
         x="31.304688"
         y="276.24579"
         id="tspan688"><tspan
           dx="0 0 0 0 0 4.7105274 0 0 4.7105255 0 0 0 0 0 4.7105255 0 0 0 4.7105255 0 0 0 0 4.7105331 0 0 0 0 0 0 0 0 0 0 0 4.7105255"
           style="font-family:monospace;-inkscape-font-specification:monospace;text-align:justify"
           id="tspan686">Also so etwas wie eine &quot;Lesehilfe&quot; im </tspan></tspan><tspan
         x="31.304688"
         y="285.4458"
         id="tspan692"><tspan
           style="font-family:monospace;-inkscape-font-specification:monospace;text-align:justify"
           id="tspan690">Cyber-Terror Modus.
</tspan></tspan><tspan
         x="31.304688"
         y="294.64582"
         id="tspan696"><tspan
           style="font-family:monospace;-inkscape-font-specification:monospace;text-align:justify"
           id="tspan694">
</tspan></tspan><tspan
         x="31.304688"
         y="303.84583"
         id="tspan700"><tspan
           dx="0 0 0 3.9105282 0 0 0 3.9105301 0 0 0 0 0 3.9105301 0 0 0 3.9105301 0 0 0 0 0 0 0 0 0 0 0 0 3.9105377 0 0 0 0 3.9105225"
           style="font-family:monospace;-inkscape-font-specification:monospace;text-align:justify"
           id="tspan698">Da ist immer das PräRequisit, dass das </tspan></tspan><tspan
         x="31.304688"
         y="313.04584"
         id="tspan704"><tspan
           dx="0 0 0 0 0 0 0 0 0 0 8.5326347 0 0 0 8.5326309 0 0 0 8.5326385 0 0 0 0 0 0 0 8.5326385 0 0 0 0 8.5326385"
           style="font-family:monospace;-inkscape-font-specification:monospace;text-align:justify"
           id="tspan702">Gegenüber auf dem Inneren auge als </tspan></tspan><tspan
         x="31.304688"
         y="322.24585"
         id="tspan708"><tspan
           dx="0 0 0 0 0 0 0 0 0 0 0 0 0 0 0 1.0657883 0 0 0 0 0 0 0 0 0 0 0 0 1.0657959 0 0 0 0 0 1.0657806 0 0 0 0 1.0657959"
           style="font-family:monospace;-inkscape-font-specification:monospace;text-align:justify"
           id="tspan706">$ErsteFreundin eingelbendet wird. Also die </tspan></tspan><tspan
         x="31.304688"
         y="331.44587"
         id="tspan712"><tspan
           dx="0 0 0 0 0 0 4.7105293 0 0 0 0 0 0 4.7105293 0 0 0 0 0 4.7105255 0 0 0 0 4.7105331 0 0 0 0 0 4.7105255 0 0 0 4.7105255"
           style="font-family:monospace;-inkscape-font-specification:monospace;text-align:justify"
           id="tspan710">Netze machen immer noch nicht was sie </tspan></tspan><tspan
         x="31.304688"
         y="340.64588"
         id="tspan716"><tspan
           style="font-family:monospace;-inkscape-font-specification:monospace;text-align:justify"
           id="tspan714">sollten</tspan></tspan></text><rect
       style="display:inline;fill:#2b5278;stroke:none;stroke-width:0.498943;fill-opacity:1"
       id="rect1232"
       width="57.226765"
       height="35"
       x="8.3866177"
       y="17.166599"
       rx="0"
       ry="0" /><image
       width="57.226765"
       height="11.659786"
       preserveAspectRatio="none"
       xlink:href="data:image/png;base64,iVBORw0KGgoAAAANSUhEUgAAAasAAABXCAYAAAC6Nmq7AAAABHNCSVQICAgIfAhkiAAAIABJREFU eJzt3Xd8FGX+wPHPlvTdhDQSQgsEQif00HvvIAoKKijq2fCsZ7nTO1Hv7neeDVT0RFAE6YLSpfea kBBC6Omk180mW+f3x4YlS5LdTUGCPu/Xi9eLzMwz88wzO/ud55nZ+co6TX9dQhAEQRAaqJTDa5Df 7UoIgiAIgiMiWAmCIAgNnghWgiAIQoMngpUgCILQ4IlgJQiCIDR4IlgJgiAIDZ4IVoIgCEKDJ4KV IAiC0OCJYCUIgiA0eCJYCYIgCA2eCFaCIAhCgyeClSAIgtDgKZ1ZSKVS8ZeXXwDAYDCQmZXN4aPH OB+fAIBcLucff3ujUrltO3/l2PGThLVuxdyHHwLAaDSSl5/P4SPHiY6JBeCF5/7E7r37retTKpW8 89Zf+GTRF+Tm5SOTyRk6aADdu3XF21uNRqPh8LETHD9xqu4tIAiCIDR4TgWrm/71n48BaNeuDVOn TMLN1ZWos7HW+Yu++Jqc3Fzr35J064XuObm5fLp4CUqlC23CQnlo5gxSUtNslq/OhLGjaNeuLT9v 2U5aejoqTy9kCtEpFARB+KOoUbACKNFqiYqORal0YcSwIUTHnLPOM0tmzGaz3fJGo4GEi5fRlGjx 9W3kMFipVSr69O7BN8tWkJySCoBWW1rlsvMemc2NzEx27Nxdw70SBEEQGrJad08SLl7G29ubRj7e NSqnUCjo0D4chVxOalq6w+VbNG9GSUmpNVDZc+3adVJTHK9TEARBuLfUuGd1k0ajAcDDw4PComIA nnp8nk3PatmKlWRkZAIQ4O/PwnfeAqBMr2fzz1soLa26h1SRp6cnxeXbAnhpwbO4ublRXFzM4iX/ s1n2wOGjtd0dQRAEoQGrdbBSq9WA7ZDcyjVrycsrsP6t0ZRY/3/znpVCoaBJcBAPzbofvd7ApctX QAJZhU6eTCYDQAJKSjSoVSrrvG+WfU/TpiFMGj+mtlUXBEEQ7jG1Hgbs3LED+QWFFBQWWqdpNCUU FRVZ/5nNpkrlTCYTqWnpJCYm0Sq0JQDa0lK8fdTWZbzVluCk1WrJzMrGy8sTX99GABQVF6PVamtb bUEQBOEeVONgpVar6dO7J8OGDOLXPfts5ikUCpRKpfWfTFZ59XK5nKYhIYS1bkVqWhoAV65co2+f 3vj7+eLh4c6gAf1JTkmlrExHbl4+5+MvcP9902gSHISLiwsqL68q6zZy+FAiunSp6S4JgiAIDVyN hgFff/VF9AYD6TcyWLvhJ8sQXgXP/ekJm79v/s4Kbt2zkiSJoqIijh47Yf1d1aGjx/Dx8eap+Y+h VCpITkll/cZN1vX89PMWxowcwSOzZ+Hh4YFGU8KFi5cq1a9Fi2bIqwiQgiAIwr1N1mn665LjxQRB EATh7kg5vEa8bkkQBEFo+ESwEgRBEBo8EawEQRCEBk8EK0EQBKHBE8FKEARBaPBEsBIEQRAaPBGs BEEQhAbvrgWr115aQFjrVvW6zhnTpjBt8qR6XefvgWgXW+NGj+S1lxbwl5f/zMJ33kIuF9dsd1pI SAhvvPpSjcrcie8I4d71uzpLL12+wqUrl+92NWz4+jZi4TtvoVAomDvnQfr26V3rdU0YN4bRI4bX uJy9dhnQvy9jR4+odZ0agk4d2vPk/HlOL799127+76PPWPrdijtYq7uvpu0C0KNbBE889igAf//r 6wQFNb4TVbtj/vbGa7i6utSq7O/hXPg9q/Vb1xui2Ljzd7sKlWi1WnQ6PSaTiRKtlpJavoRXqVQS 0aUzX33zbY3L2msXP99GGAyGWtWpoejVsxtnzkTd7Wo0OLVpF61Wi7Y8dU+JVktJSf29NFrizr4s x8vLq9aBCn4f58LvmdPByt3VlSmTJ9C6VSvkSgX5eXmsXreRvLx8AAIDA5gwdjTNmoagLS3jxIlT HDl+ArCk/Bg6aCA9e0Tg5uZO9NkYjCb7GYVr4r6pk2gTFoanpwcXL11h1Zp19bbuqZMn0j68DZ6e nqxet4HhQwajUnlx6kw0e/YdcFhep9NTrLHk+9JqSyu9MT4oqDGTxo8lOKgxZrNESmoqP/y4Fkmy PbE7d+pIRmYmueXtrVKpeOyR2eQXFNCkSTAHDx+lV4/uyOQy/rd0OWVlOrvt0rdPb4YOGYinhwcg Edm7FwDfr1zN9cQkh/u14JmnSEpOJTw8jKjoGJo1CyG4cWNWrV5HSlo6jXx8mDRhLCFNglEqXbiR kcHmX7aSm5dPl86d6Na1Mz7e3sgUcqKiY4js3YvU1FTWbrC8E7JvZG/69OyBWq1Gr9dx7MQpDh89 XqkejXx8aN6sGT+u2WCdJpPJmTJpPGGtQ/Fwd6egsIidv+7h8pWrDvcLHH/W69Iu9urmzDENa92K EcOG4O/nh4TE5ctX2LxlO0aj0WG7AAzs35e+fXojk8uIv3CRkCbB7N1/kKvXrgNQUqq1pv3Rlmir zcpdFTc3N8aPHUX78HDMZhMJF6+wfecu9OUBwGQyMWRgf/r17YMkSZyOOsve/QeRJKlO3xEymZw/ P/cnvL0t2RpuDjcmp6Sy7PuVuLu68vRT8zlw6AhRZ2MAmDxhHD4+3vzw41oie/eq07kg/DacDlbd e3RDpVLxn48XYTIZCQwIID/fkh7Ezc2VuQ8/RFR0DN+vXIO3WsXj8x4mNz+PhIuX6dqlE5GRvVi+ YhWZmVmMHDEU30Y+9bYTGzb9AsDQwQMJadKk3tYLsOnnLQA8/8yTTJ4wjmXl++Di4vwV3E+bLes4 eSbKmrTyphFDh5CcnMrS5SuQyeQE+PtVClQAvXp048SpMzbTAgMD+GnzL7QNb8PIYUP48KPPmDVz Bq1DWxKfcMluuxw/eYrjJ08xfeoktFotO3btcXp/AGRyGXkFeazfGMdjj85h6fIVtGzRnC5dOpGS lo6mREt0zDl+XLsRSTIzYdxoxo0ZzQ8/rgGgebOm/OfjRTwyexbt2rbhs8+X8MZrL+Hh4U5paRlZ WdmsWrOOnNw8ghoHMv/xuVxLTCI9/YZNPXr26EZs3HnrFyKAJJm5cvUqu3bvRavVEtG1CzNnTOP9 f/+3yra9nb3Pel3bxV7dwPExLSwqYteve0hOTcPd3Y1HZ88isncvjhyzDeRVtUuH9uEM6BfJsu9W kp2bR/++fejbp5dNuaysbI6WX2T+sm1HlWl+qjNj+hQUcjmfLP4Ck9HEzPunM2LYELbv2g2At1qN Sm1pV2+1isfnPkx+fj5RZ2Pr9B0hSWY+XvQFvo18eOmF5/jnfz5Cr7+132V6PWs3bOLROQ+SlJxC QIAf7du15fMl3yBJUp3PBeG34fQ9q+zsXPz9/QhrbclBlZWdjSRZrnzahrVBMkvs3X8Qs9lEQWEh UVExdO7YEYD24eGcjYklIyMTSZLYt/+wU18aDU1MbByZmVkANRouSE5JBSA7O4fS0jKbednZ2YSG tiAoqDFms4ms7OxK5QMC/AkMCOBCwkWb6WazmdT0G+TlFZCekUGZXk9xcTGeXp413bVaSUlJIy+/ AEkyk5ScSrGmGC9Py7aNRgNx5+MxGg2YTCaiY2IJDPC3ls3IzMJgMJCXV0BiYhJGo5FSrRZPD0v5 a9cTycnNAyAzK5vU1FQC/QNsti+TyenZPYLTUWcr1S3u/AVrLzb2XBwKhcKaMNQRe5/1uraLo7o5 OqY5ObkkJqdgNpvRakuJv3CRwEDn2qVzp45Ex8SRlZODJJk5evxEpWFpnU5v/Yzf/Nw6Q6Xyol3b NmzZvpPS0jL0BgOHjhyjS+eONsvt3nsAk8lEfkEhp6PO0qFDe+DOf0ekpadz4PARZt4/jamTJrBu w+ZaD8kLd4fTPasrV6+ybsMmhg0dxLgxo9h/8AhnY2IBUHurUKm8eO2lF6zLy+Vy0m+kA6Dy8iIp JcU6z2g01CiBoquLCy//+Xnr37l5eXy9dLnT5R0ZPmwwkb1uXWFu+mVrpcAAkJmdVW/bvGn3vgP0 LCxg5ozpaIo17Nq7l5SUNJtlevfoztmY2EpDPXqjEUmSkMwSujI9YMmuXFUesTtBp9MjSRI6g9Hy ZS5hfbLOy8uLEcMG06xpU+QyGQqlErlCblPWUl+JMn2FusstWaI7d+xInz498HT3QJIkGvn5cu6c 7b23duFhaEpKKvW2ZDI5gwf2o0P7cJQKJZIkoVAoUJSv2xF7n/W6tou9upnNjo9pSEgThg4agJ+v L5Ik4enlaR3Cc9QuarWKlNRbny1JkiguKnZ6v+xRq1TIZDKemPeodZpMBkqlizXzt06nR6fTWecX FxfjrbLkpqvrd4QzTpw8w9BBA8nIyOR6khjeu9fU6AGL64lJXF+eRLOmIcx5aCY6nY4LCRcpLCgg KzubL75aWmW5Yk0x6goJE+VyBe7u7k5v12A08vlX31j/rsnQhDOOHD3B6TO3rkKrG6c3Geu/NyhJ EqfPnOVMVAzdunZh/tyH+b+PFlFSUgJYElpGRHRh6fLKT67JKlx51vYqVJKoQw4wqVI9bpo8YRxF xUV8vXQ5RqORZk1DmHn/9Arbrb7uQUGNmTxxLEuXryAzy9LTfPihmZW20atHD06dia40PbJ3T8Lb tmHFyjXWq+e333ytRntW3WfdOdW3i6O62TumMpmMR2bPYuv2XcSdj0eSJAYN6EtgYKDNctW1i6ZY g7fa22aap6eHk/tkX35BAQCfLP7SJiBV5Obmirurq/XiRK1WU6SxfM7r+h0Bls8yVH+xNnbUcJJT UvDz8yOia2diYuMqlRf58Boup49Mi+bNUKvVyGQy8vML0OsNKMqvlK9cvY67uwcD+/fF3dUVmUyG v58vjctPoviEi3Tv1hV/Pz/rlWVNfttyM2HjzX+a8g94fdHpdDbrNxp/uyeC2rYJw93dDUmSyMzO RiaTI6vQAejYoT05OblkZ+fcke0XFRXRskUzXF0tV8BKZe2fpqpIpfKisLAIk8mMSqViyKCBNSir Qq83oCnRIpfL6dg+nFahLW2WUavVtAxtwbnbvnAA1CovSkpK0OkNuLi4MGzo4BrdY7T3Wa+rutRN oVDg6eFOQXlgaBIcRI/u3WzXb6ddzscn0D2iC40DA5HJZPTsHoG3t3el5WqjrExHXHw8UyePR62y POjg5eVFyxbNbZYbNnQwCoWCRj4+9OjezZqA1dnviKCgxtw/fQpubm6V5pVotRiNRsLbtgGwadcO 7dvRoUM7Nm76hXUbNzNh7Gj8/fxsyt+pc0GoH073rEKaNOGB+6bh4emBXqcj7vwFzsdbrjT1BgPL V6xk9MjhDOjXFxcXF/Ly89j5616ysrM5H59AgL8/j8+dg1Kp5OTpqBqNhzvy5Px5NPLxxsvTE5lM xuuv/BlNibb8Bmrdnjp88rG5+Pn74unhwdTJ4xkxfAjbd+7iQkLlTMW10aVzR+6bNhkXpQvFGg2b t2yzCca9enSr8p6MU3V3ol2OnThFSJNgXnrhOeQyOTt+/ZWoaOeHvKqze89+Jk0Yy7Ahg8nNy+Pw kWMEBzv3m53r1xO5ei2RPy94BrPRSGzceeIv2PZqenaPIP58gvUqvaITp85w//SpvPHqi5SWatl3 8DD5BbcekJg4bgzt24VbexVv/OVlSjQlrN+4idS0dLuf9bpyVDd7jEYj23bs5qGZM3BxcSUpOZmz Z2Pxr3Av0F67xCdcJMDfj0fnzEKpVHL12nXrfcH6sOnnrQwbOpgnHp+Ll5cnJZoSjp08RVKyZXgv JSWN0rIyXn3xeSQJzkSfJSb2HIDT3xFqLxWtW7XCzc2tUg/OYDCwZdsORg4bwpSJ4yjWaPh08RJ8 fHyYOmkCa9ZvtP585NDRY8y8fxpfL/3OOrx+p84FoX6ITMGC8Af22ksLWLFqLTcyMu52VQShWimH 1/y+fhQsCEL1goODkMxmssqHlHt0j0Amk5Gdc2eGmAWhPolgJQh/EO5ubowbPYJGjXyRkMjJyWXV 6nWVnjIVhIZIBCtB+INITErmy/8tu9vVEIRaEc9pCoIgCA2eCFaCIAhCgyeClSAIgtDgiWAlCIIg NHgiWAl33YzRkSyYM/ZuV8PG9/98jtCmgY4XFIS7ZOHzDzC0d6e7XY3fTIMPVh1aNyU44FaqgKG9 O/HKvPpJ0e7rraJreEvHC/4B1Ge73k1B/t4sXfinel3n87PHMGZA13pd52/h9mN6+7lU1fKO3In2 vVfVd6D4IwWe2qhVsOrStgVjBnStt/el2TNrfH8a+zWy/h1zMZFNu0/Vy7qHR3aka7sW9bKue119 tuvdlFOgYfHKHfW6zi0Hojl9/rrjBRuY24/p7edSRS5KJc/MGuVwnXeife9FzraXs9q2CGLikO71 tr7fo1r9zirpRjaREW1Y/OY8Nu8/w69Hz2EyVf0m9OAAH95+egZn4q/TumljfNQeXE3O5Is1u9Dp LT9GfGBsP0b164Kriws6vZ5FP+zg3JUUHps+lB4dQmkW5E9pmZ5Fq3bQskkAkV3bsHDJRgB8VJ4s mDOW1s2DMJnMrNp6hL0nLC/xfGXeJDJzCghrEYyHmws+Kk/W7jzG3hPnGdyrA/eP6YskQd+ubdlx OIYtB87QtkUQzzw4Bl9vL4o0pSxauZ3LyZkAfPfBs6zdeYz+EeG4uSlxUSpZXGF+Rc2C/Hhu9lhc FApaNW2Mh7sLmbmFPP3uN5TqDAyP7MSscf1xdVFyLS2bT7/fRqHG8hbuWeP6M6B7O1yUClo1a4ym pIw1O46ydudxu/Wzt7+O2qp35zBruwYH+PDO0zM4ee4KYc2DUas8KCgu4cNlWyguKbV7zJwp26tz a564bwQuLgpuZBVwLc029YqjY/DeVxt58ZHxNAn0ZfZrn6Etu/UevEBfNW8+OY37X/oYmUzGY9OG 0r97O5QKBTqDgf8u38LF6+kolQoenjSIQT3bo1QouZ6WyeerdpKVV1TpWN43KpLLiels3mdJfmnv 2FVVPxelslaf0duN7t+Vzm1bABKBft409vPhp92nUHm506tTK9xdXbmRnce/v/0Fo9Fkc0yrOpcu Xrek8FEqFfz9mRn4qD1Z/NZjACz453JG9u1Ms2A/JAkmDO7OtkPRbDsYbW1fgD5d2jB74kAkSSK8 ZTAms5lT567x7pINducpFHLmThlC/+7hyOVyjkRfZNlP+zGZzIzu37XSdr/duL9Se9zkolTyyORB DO7VES8PVy4l3uDNT1eXH6vOzBzbDw93NwqLS/h63R7OXU62tmfXdi1RyGX4qL3wVXsSnZDE1+ss ySKrq6NMJquyvWQy7O5Tddtq2SSAV+ZOIijQl8VvPcbVlEw+/n5rpf18YGw/xg/qht5oIq58H26y 155qLw9eemQ8LUICcXVRkpNfxFufrrY5b+4FtQpWRZpSvlm/lx893ZgyrDefvv4I2w/FsPNoDEZj 5aAV1jyIn/edZumGvchkMl57bDJzJg1m6Ya9AMReTGLL/jNoy/RMGdaTJx8YyfMfLOPbjfvp3SmM L9fsJvaSJf9Myya2ieZef2IK5y6lsHDJRvwbqVn05lyS0rO5mmL5chvapxMv/Gs5mpIyggMaseSd JzgafYmDpy/QKawZxdoyfvjlEACeHm4sXDCLD77eROylJLq3D+Xvz97PvL9+hd5gQCaT0TW8OX9b vBaz2czIfl14atZoXvm/yuk7np89lh2HzrLvVDx+PiqWvD2fZ977llKdgc5tmzN36jBe/Pd35BYU 88jkwfz54XH848sNdGnTnGG9O/LsB8swGk08PXMUpTo9a3ced1g/e/tbpjc4bKuKWjcPYtuhsyzb ZMns+9KjE5k2ojff/3zQ7jFzVNbXW8WbT07nrU9/5MLVNIIDfPjk9bkcPXvR6WPw9MxRvP/VT6Rn 59tNjdKlbQu6tQ/lyb9/jclkxr+RmuISS/LLB8f3J7RpIH/6x1L0BgMTh/Rk4XMP8PR732I2V//y Y3vHDqiyfv988b5afUbL9JXf/j8ishNP/v1/pGXlEdqsMV+9PZ91u47zyn9+QCaT8cGfZzG0d0d2 HztnU66qc+kmo9HEB9/8xMZPXua597+1mTd2QDc27j7JzFc+w2w2E+R/6y3tbq5KXpk7kQX/XEZG TiEDuoVz3+i+vLtkg915ADPH3mp/CYmFzz/AxKE92LzndJXbteehCf1p0yKYZ99fiqakDP9GlkSW Ee1a8uiUwbz64Q9k5RURHtqE956fyXPvf2u9KBnepxPPvb+Ma6mZKJUKlrw9n5PnrnA2IdFuHatq r4cmDLS7T/a29f3PB5k2sg+vfPhDlfvYv1s44wd148V/ryC/SEOfzmEsXDCTPcfPO2zPKcN7kZlb ZP2MhgT63nOBCup4z6pEq2PV1sO8++UGJg/ryVtPTK1yObPZzK/lJ48kSWzae4rBPTtY5ydcT7c2 3olzVwmyM65eUaCfNx3DmrFmx1EAcguKOR5zmX7dwq3LHDgVj6b8Cyojp4ASbSlBAVUPhfSLaMu1 lEzryRydkEipzkD7ViHWZbYfirGePOevpNIiyL/KdbVq2phzVyxvjc4r1FCsLaVJ+XZH9+/K1gNR 5BZYEt/9sv8MkV3bolDIadU8iITEG9agf+FaOi1DAp2uX3X760xbVWSWJLYduvW29/irKbSocKFg 75jZKxvZNYz4yylcuJpWXsdCDp6+UKNj8NOek6Rl5TnM4ZWRk49/IxXD+nRCqVSQW1BsDeqj+kWw ausR699bDpzBzc2Fdq2a2F2nvWNXVf3q+zN64VoaaVmWN6UnpmahNxisgUmSJC4n3aBpY1+7+1AT BcUlrN5+FJPJVKm9gwN80ZbpyMixvDU+/lo6rcofSrE3D2DMgK6s2noEg9GI0Whix+EYBnVv79R2 bzc8sgvf/3zQ2oY3j82o8mN1MzBdSrzB8djLDI/sbC0bfz2Na6mWiwaj0cTlpBvWz6qjOt7O0fL2 tuXIoJ7t2XYwmvwiDQAn466SmHprRMLetq+nZdGzUyu6hFtueaRn5zu1zYbGqZ7VfaP68MiUIQAc OpPAh8t+AaBjWDMmDe1BSGM/Nu4+wd4T8VWWL9MZMJluXR0VFGnwa2RJtKZQyLlvVCTd2oeCJOHq okSGcxldA329UcrlfP33J6zT3FxcOHQmwfr3zeGZm0xmUFZzry3Qz4f2rZqydOFT1mleHm54q24l qCuosD5JMuOiVFS5ruQbOfTq3Jodh87StLEfHm6upGXmWevdq1NrRg/oYl2+pFSHt5cniWnZTBra A093V0p1Bnp0DOXCtTSn61fd/jrTVhWVaMtshnbNZsn6hezomNkr6+ejJqfANjttboGGoABvp/cx JdO5tBZZeUW8/vGPPDC2H3OnDGHHkRhWbz+K0Wgi0FdFTr5tPXLyiwn09eECadWs0f6xu/lFUrF+ 9f0ZLdLYJgY1S6DR3kqVYTZLKBVVfyZrIzWj+rbOyi1A5elOyyYBJN3IoWenVsSXX4TYmweW4drX Hp9svfBTKhQUFt9qB3vbvV2gr6rK4dsAXzVR8dds65xXRKCf2vp3UdHtbS+hUMicqmPlethf3t62 HPH1UXHy3FWbabmFGqe2fSTqIjq9gQfHD2DB7LGs2nqEfScrDzM3dE4Fqw2/nmTDryetf7duFsRL cyeSlVfIpt2nKg0r3M7Tww0PNxdKdZar2CB/X/IKLA09c2x/OrZuyrtfrKdMb6BFkwD+++rD1rL2 rqly8oso1emZ//bX1V992bkqu31WTn4RZy8l8e4X66vfqJMZeT9ZsY1PXn+UIb06UKoz8M7n663D Otn5xZw4d4VNeyo/0JBfpCHuSgqL//oYGdkFJFxPt7Z9XernVFs5Xg3gxDGzUzavSGPTSwJsAlF9 HgOwXDR8uOwXfNSevD5/CveNjGTNjqPkFWpo7OdtvQoHS089O99+bil7x66q+tX1M1ppUbtnhKOy duZVVzU7pUp1Bj5ftZP/vDKHK8kZ5BRo+HD5FofzALLzNSz8cqO1p1GT7d4ur7CEQF+1zbEEyC/U EOhrO0rT2M+H9KxbgdDeduzVsar2qss+Odrb/MIS/H1UNtMqnjeOtn067hqn464R2jSQ9xfMJCOn wHoRfK+o1TBgmU7Pe0vW8+4X6x0GqptmjeuPTCbDzVXJQxMHWId+fL09yS4ookxvQKFQMHFoT5ty BcVaWjWtuquclVfElZRM5kwaaL1y9/X2wkfl6VSdCopLbIYmTsReoX1oE/p0DrNOaxbkX6unHvt3 b8fmvad54+MfefeL9VxOumGd9+uRGKaN6E2z8iFEuVxuHQ5QKOT0i2jL0+9+w5ufrub7nw9aeyl1 qV9d26oiR8fMnlPnrtI5vAXtygNWYz9vhvS6NSRcn8fAv5EaX2/LCV6kKSU9Kw8XF0uvY+eRWGZP GIi7qyUb7MQhPdEZjFxKvFHt+sD+satKfbZ7Xdk7l8rK9OgNhhr/tmxkv64s/Gojb366mo++22Lt XTqat+toDPOmDUHlZUld7+7qYvexelel0trmt9tzIo45Ewfh6e4KWD5TALuOxDJhSA/resNDm9Av oi37TznXq7BXx6raq6b7VFF+cQlNAhvhWk3W6MPRCYwb3J1GasuIVPf2oYS1CHZq282D/XFztfRL 0jPzKdBocVHee+8wr1WNazrmmZVXhNFk5qu/P4HKw41T567ywxbLQw0bd5/ijflT+O6DZyksLmH1 jmNEdmljLfvjlsO8PG8iU0b05pPvt1da9z+/3sRTD4zk+w+eQalUkF9oefLs9qGVquw8EkPfiLZ8 98GzbNl/hnW7jvO3RWt58v4RvPjoBORyGck3cnjr07U2w5jOyC0o5tV5k5g2KhKzyUROfjErfj7I kbOXOHclhaUb9/HXp6bRyNsTSYKDpy/w5ZpfUcgVFGlKWf/JSxgNJkp1emIvp/DJd1spLimtU/3q 0lYVOTpmjtrlX1//xMuPTsDN1ZWsvAK2HTpLgK8lqNR1HyvyVXvx6rzg+CYLAAAKXklEQVSJuLu7 YZbMXLyeztIN+wBYufUIc6cOYenCpzCZISk9i7cXrXG4DXvHrjr11e51dfu5VPFC0yxJfLN+Lx+8 MAtNqY4XPnDu7ey5hcX8+8WH0OkNGEwmktKzWbRyJ8k3cuzOW739GA+O68/iN+fh7uaKTm9kxS8H ycg5V+V2uncM5YU545j9l8WVeqgrfznM3GlDWfLOk7i6KLianMlbn60mOiGRFT8f4P0XHsTVRUlh cQnvf/2T9T6aI/bqWFV71XSfKkq4lk7spWSWv/8n4q+m8d5XG23mH42+RPMgfz59Yy5Gk4lLiens rzCUZ2/b7VuF8N6CmQAYTWb2nTjvdCejIbnjmYKDA3z47I15PPDyJ3dyMw1K9/ahzJk0iPe+2kh+ UQkKhZyubVvw2uOTefDVz+yW/fCVOWw9EMXBqARMJjNenm688fhUjp69xLZD0b/RHgiCY3MmDcJb 5cnSDXvQ6Y24KJXMGtePpsH+pGbkVjvvX//bVPNtTRyEytOdJWurvygQfr9SDq/5bd5gIZM5dxPx 96J5kwDyCovJLyoBwGQyExTgQ0ZOgcOyLZoEcC01y3qFr1Qo8GukIjPXcVlB+C2FhgSSciPH+ntJ qfz3X5nZ+Xbn1UaH1k3ZciCq3uou3Ht+k57Vojcfs/6I8I/AzVXJsw+OJbxlMAajCblCRnJ6Lt/+ tI/sKp5aqqhP5zAenjwYmczyZJcEbD8UzY7DMb9N5QXBSSGBvjw/eyxqLw8kSUKukBEVn8j3mw8S 6Kuudp5BZCYWaijl8Jo7H6wEQRAEoS5+s2FAQRAEQagLEawEQRCEBk8EK0EQBKHBE8FKEARBaPB+ t8FqdP+u/O1P0+92NQRBEIR6cE8HK4VCzg//eg6FQs78GcMZ2a+L40KCIAjCPefee0FUBSaTmVc+ XIHJZGbdjuPobsv/U4P3gwqCIAgNmNPByl7WT3sZaGubMddRxtm2LZvw1pNTmfvWl4AlzcK0kb0J DWlszbKpUMh584mpdAxrhslsZvO+02ys8PZ4e9t+ff5UNu4+yRMzRpCVW8jL/1nB8MhOzBzTD1c3 F+QyGau3H2V7hbxNgiAIwp3hVLBylPXTXgba2mbMBcfZah3pG9GW1z9axQf/24Svt4qP/vIwKRm5 ljd/O9h2i5BABvVox1P/+B+lZXqUSgUvPDyeR974nMJiLR5uLri7uda4wQVBEISac+qelb2sn44y odY2Yy44zlbryMXr6cRctLxdOL9Iw45DMQzq0cGpbXu5u7J41S60pTokScJoNHEjK59pI3rjrfKg VGewvvtPEARBsC+4Y098QkIdTquOUz0re1k/HWVCrW3GXLCfcbYqt78w9/YUDHmFxXQtT+3saNvF JaWVyr/635XMGB3J5399nJiLSSzdsM8mR48gCMJNoa3D6NqtF3K5HGSQl5PDwQN7wFx9GhpPL0/G jJ9CYX4Be3dbUiL17B1Jy1a2KXjiYqO5lFA5M/uEKTNwc3MDSUKSyTDodcRER5GSZMmYPP2B2ZjN EpvWr6pUdtTYiai9fYg6fZzEa1crza+L0D4jCI0cybVjuyhMT6x2WlUkk+Vdkk4FK3tZPx1lQq1t xtzgAB+7D0iYTGZkMtvA1Uhtm9DOtzxR2U3+vt7kFhbXetvFJaUs+2k/K345xKNThvDqvIm8+enq 6ispCMIfVveekVyIiyXhQhzunp6MGTeZzl0iiIupPtXPkOFjMBj0NtPcPb3Iyc7i4D7n0qNcu3qZ s2dOolQq6RU5gF6RfUlJSbQESQkkSSIsvB1XL120lnF1dUel9sZsNlW/4lq6GZRuxJ8h5cz+aqdV x6grBWrw6Hp1WT8dZUKtbcZcRzJyC2jk7UlgeVZQtZcHQ3p1tFmmbWgTenRsBYCfj4pxAyM4eOZC rbatVCoIbdYYAKPRxJXkDFxd7umHKQVBuFPkcmQyGTduWEagyrRa9Hodbq6W+9yjxk1m5JjxNkV6 R/ZHkiTycnJtpru7u1OqrfktB6PRyMljR5Ahw8e7PGOxDDJupNGmbQebZbt274Gm2LmklDXRMnIk oZEjyYg/zcW9G5Akqcpp9pgNlhEup79t7WX9tJcJtbYZcx3Rlur44sedvPfcAxRotJSU6dl1NJbG frfSSK/fdYLRAyJ49sExKBUKNu87xek4S3e4ptuWy+Q899AYGvv6YDAayS/UsGjVTmebTxCEPxKz mfS0NIYMH01CfBzBTUJQKOSci7b0qgryczDobvWggkOaEtKsJbu2bqZHn0ibVcnlSpq1CKVpi1Ak s5mC/DyOHdyP3mjbA7udp5cnPXv3w2Q2UVhwK4/Y+bizjB4zCZVKjUZjGWkKadqc6NPH6dmnf321 AKGRIwntM4Ib8ae5uHcjSFKV0xwxaC11dCpFiL2MoPayftYlY64gCMK9zNfXn0HDRiCTy1HIFVw4 f44L52MrLad0dWXCxOnERJ0mMfEKAwYPw83V3XrPSlneGzPq9fj6+jNgyHBKtRr27NpeaV0V71mZ JYkSTRGnTxwnP9/SW5v+wGw2bfyR0aMnkV+Qz4mjB2nePJQevfuweeNaps14kOiok07fs/JoFIiX XyA512zvn4VGjiK0z3BunD/FxX0/lQeqytOckX3+AGX5Gc71rEJDAom5mFTjrJ91yZgrCIJwr/Jw 92ToiNGcj4vlUsJ5goOD6TtgKO7u7kSfOWmz7NBhI8nJySQx8UqV6zLqb/Wg8vNziTsXTffufard 9s17VvZcvnyBLhE9AGjfqTNpaanO7pqNgNYdCBswjitHtpEadQiAVn1H0bL3cNLjTnFpvyUo3ZxW 00AlmYzoCrIAJ4cBv924j+dnj2XMgAibrJ8/bDlit9zOI2dp0yKYJW/Pt8mY+4Gd3pggCMK9LjSs DUajiUsJ5wHIyMjg+tXLNA8NrRSsvH188fbxZfoDs22mT73/ITatq/zUnkyuQJKqf6LQGVcvX6JL RE/C23dCpfbmwN7dtVpPSvRh1IEhtBlguf/m4uZBy17DSI87RXLUfvxD2+Md3Nw67WbwcpY2O8m6 r04Fq/TsfN745Mca74hOb+Sj77bUuJwgCMK9LD83C5eOXWjcOISsrHSUSiXBTZtTorGMMvWK7I9R r+ds9Gk2rl1pU/b2YcCOnSO4knABvVGPt9qHzp26kp2dWec6ZmXcoHOXCIqLi9Dry2q3EslM/K61 ANaAlR53kkv7N9E8YgBhgybYTKtJoDKbTRQmn7f+LR5nEwRBqGcZGRlcuXKJfgMHI5PLABklmkIO HdwLgJ9fACaz0al1NWveknYdOgGWx84zMzI4cfhAnesYGxtFcEhTLl44V7cVlQesssI8jEYDyWf2 gySREnMUF3dPm2k1oUm7iElfav3bqQcsBEEQBOG3otfkkRW7F6nC777u6RQhgiAIwu+LUaclJ/6w TaACEawEQRCEBsISqA7ZDP/dJO5ZCYIgCHedvjiXnAtHqgxUIIKVIAiCcBdJZiPFaZcoSomvNPRX kQhWgiAIwm9OMhnRZidRmHy+2t5URf8PX4QELlVa9kkAAAAASUVORK5CYII= "
       id="image2594"
       x="8.3866177"
       y="33.711861"
       style="stroke-width:1.97419" /><image
       width="57.065899"
       height="7.6897311"
       preserveAspectRatio="none"
       xlink:href="data:image/png;base64,iVBORw0KGgoAAAANSUhEUgAAAacAAAA5CAYAAACS9OQfAAAABHNCSVQICAgIfAhkiAAAIABJREFU eJztnXdUVMf7h59ld6nSpIMNe++99xZ7793EFlM0Gk2MGn/GmmhsscQae8eCXSxYEAsg2EURBREE pMO23x9rrpRlWYqxfO9zjud4mblzp7xz35m5s/OROJeppUFEREREROQDoEGDMjUFZUoKGt65I6MP mCcRERERkf9xJEiQm5hhUsgSidE7lyQ6JxERERGRD46RVIaJhRUSqVR7/YHzIyIiIiIiAoCRkREm 5toZlOicREREREQ+GrQOqpDonEREREREPi6MpDLROYmIiIiIfHyIzklERERE5KNDdE4iIiIiIh8d BeacLnjupmxp94JK7oOxaM50hvTr8aGzIfI/hmh3IvklN+/gT8Hecu2cpn47lr1b/nofefks6Ny+ VYGmtWjO9PcW/0Nz99ppbl04yo3zR7hy+gDLFszCydHhQ2dLRKTAcbAvTL3a1fN074fo179O/55e XTv+p8/MTK6ck1wup12rpgBUKFs6S7hG8799ElKlCmXp36trgaV3xfcmG7fteW/xPwY69B5GrWad aNV5AAmJicz56fsPnaUPxv949/ms6dKhDfVr18jTve+rX+uzt+17PLh4+VqBPzM3yHITuUPrZtzy D8L3VgADendlxtzfM4Q3bViPlYvnYGFuzqMnIfz06yKeh4UDUNjWhjk/TaJ82VKo1WpWrNuCx9GT gHaKec77Kp3bt6ZB3Zp8M3UW57yv5q1AUinfTxhN25ZNkEgknPK6yOJla1GqVPTs0oGSJYqhQcOA Xl3ZsfcQi5atyZKGXWFbtv+9jGJFXElNS2PpqvUcPn4GAPfiRZn147cUcXPB1MSEi1d8mf7rQkqW KMaiOdMp4uqMx/Z13Ln/iGmzF2RIt2eXDtStVQ2NBlxdnHB1dmTjtj1YW1rSpGEdzM3MCAl9waSf 56JQKGjWqD4tmzZk/OQZFHF1Yen8X9iwdTfTvhtH2MsI+g6fkCH9zPFXL53L8dPnqVG1EsWLunHt hh9nL1xmxKC+yGRSQMLkn/+PZ8/Dch0ftM545tRvsbezJfZNHDPm/k7Q3Qd5atOk5GQ8PE8xb+ZU 4W9fDR9Azy4dMDY2JiUllRlzf8f3pj8At6+coE23QbyMiASgQrnSrFw8h5ad+wNw3nMXy9dspkOb 5jjYFSY+IZE/V2/kq+EDsDA3w9KyEAuWrubCJZ8seTE3M2PujMm4uTrj4uSIq4sTEa8i+W76HHyu +9GlYxvGjRyMsbGcB4+Cmf7rIqJjYgFo0aQBE74cikajoXLFcqiUKs5fusq4STP09gGAokVc2L1p JW4uzsTGxTF30QouX7thkF3Xr1MDqZERdoVtsbOz5bLPDX77fWW29Z0T40YOpkTxIkz5ZR4AA/t0 Y8aUidRp0YX4+ARMTIy5ef4oTTr0Ji4uPs95y23e9dncec9dTJg8k3kzp1CsqBsNWncjMSkZALlM xo0LR+jYazjPw8KRSCRcOXUAD8+TzPtjFQDfjh2BjY0Vs+Yt1Wtf1laWzJ81lTKl3DExNiY8IpLh 4yaRlJzCDxO/om3LJshkMlJTU5nyyzzcXJ0ZPbQ/GjS0bNqQ3QePsm33Qb1lSU/6fg1QrXIFfpo8 AffiRVGqVPw4cz7n39pxjaqVWb5wNhbm5kS+jmb6rwu5e/+RzrrUZ28jh/TldtA9tuzc/17syxBy 5ZwG9O7KomVruffgMRPHDGP+kr9ITEoSwhvWq0WX/qNISUll1JB+/LlgJj0HjwFg6fyZ+Fy/xfjJ M3BysOfA9rU8eBQsVNy078Yx7deFjP3+p3wV6KsRAylb2p2OvYej0WhYv2Ihg/p2Z9P2vQD07dGJ 9Vt2Ua9lV5Qqlc40enRuz4BREwl9EU7VSuXZ9vefnDl/maTkZCKjXvP7inUEBN2jkIU5h3dtoGnD upzzvsqSlesZPrA3A0ZNzDZ/XTu2oUOvYTwJCaVc6ZJ47t3Eus076D9yIhKJhM2r/6BTu5YcOHIi y71lSrnTvlUzOvYeRkJiko7UM1KhbGnWb9nFirWbMTU14eyh7ZQsUYwhYyaRlpbGhC+HMn70EKbO nJ/r+JaFLNiwYhETp87E57ofDevWYu3SebTqOoCUlFQgd21qbWVJv55dMozWfK77sXXXARKTkhnS rwfTJ42n+8Avc0wLtOd11alZlZETpgCwcvEc1iyZS/tew4h4FUmdmtVYNGc6zb/om+XeEYP7kJSc TJ9h45FJpez95y8W/bkGn+t+1K5RlckTRtN72Hitwxo3krkzJjP2+58xMzNl0ZzpdBvwJc/DwmnT ogmjh/Zj3CTtSyWnPtC+VTP6jphA+MtX1KxWmfXLF9Cq60CiY2JztOsuHdvQrf9o7j54hFwux3PP RrwuXOGK702D6iszF6/40q9nZ+G6Xatm3Ln3kBZNGnDI8xQ1q1Ym+OkzomNiGT96SL7yZmjec7I5 CRJmTPmar6fM5Omz5xlWchRKJddu+FOvdnWeHwqnZrXKhEe8olWzRoJzql+nBn9v2Zlj3Qwb0IsX YS8Z+/3PAJQoVoTEpGTq1a5Og7o1ad9jCEqVCicHe97Ex+MfeJea1SoTH5/An6s3GlSW7LCxtmLD ykVM+WUeZy9cxsLcLMMMqH2rpvQYNIbEpCRGDu7LzKnf0G/E1zrT0mdvmSlo+zIEg5f1SpcsgZWV JTf8bpOYlMTZ85fp0rF1hjibtu8VKnbTtj2ULe2Oq4sTLs6O1KhakTUbtgEQERnFmXOXaNuiiXDv 6fPeXLx8DY1Gk6/lwV5dO7Jy3RbS0tJQKBTs3n+Eti2bCuFRr2P4a8NWFEplts85dOw0oS+0M76A oHvEJyTi5uoEQEJiEgFB94T/3/QLpIibi8H5u+kfxJOQUADuPwomJSWV/YePA9pl0dtB93AvXlTn vYUszJk1fynxCYkG1ZFKpebwsdMApKSkcv9hMJ4nvUhLSwPAP/AuJYoVyVP8Vs0bcff+Q3yu+wFw +doNkpKTqVa5gpCeIW16eOd6fL0OcfPCUZ6EhDJn4TIhzO/2HWHke877KkVcnXMsc3r+rVeAgKC7 XL52k4hXkUJZirg6I3t7jld6ypcpxbWbAQAoVSoC7zygbJlSgNa+tu/1ENL5Z9d+WjZrhEwqpYir M3HxCcJqgd/tIMqWLglgUB84fPwM4S9fAXDTPxD/wLs0a1RPeK4+u77lH8jdB1onp1AouB10j9Il S+SqvtITdO8B5uZmFHVzwcrKknKlS7Jp2x4hvw3r1eLiFd8CyZuheTfE5jZu28OTkFCd9uZ9xZcG dWsC0K5VUw4dO41Go6FMqRKYmZlSqUJZrlzL+WV772EwTRvVE74hPX32HIDQF+E4OdrTuUNr5HI5 EZFR2ToaQ8qii5ZNG3I76B5nzl9Co9GQkJiUYYKwYdse4frshct6bUCfvWWmoO3LEAyeOQ3s043i Rdzw8z4GgJGRhOpVKrJj7yEhTnqPq1SpiI6JxdHeDqnUCLlMxvH9W4RwUxMTjp06J1w/eRqan3II uDg7svj/fhKMUyqVEhP7RggPfhqSYxqRUa8zXCsVSmQybVVVqVieEYN6Y2tjDUDZ0u74B94xOH+x b95kuFZr1MTFJ7y7VquFZ2XmTVy8zlFNdiQkJmaYHarUat6kf5ZKleFZuYnv6uRE9SoVOe2xTQgv ZGEh1AsY1qad+43kZUQkS+fPxNTERHi+TCpl5JC+NKxbC41Gg7GxMUZG2Y+lJBJJlr/Fxsa9K4sq Uz2rVEgkEqQyaZYZ9MPHT2jaoC6Hj53G1MSEGtUqse+Q1u5dnB1p2qhuho/FCQmJ2NpaExb+Chtr K0qXLMGj4Kc0rl+HW/6B2vpydsyxD2Ru21dRr3F0sBOeq8+uM9+rUquRyXO1MJIBtVrNJZ/r1K9T A6VSxaWrvpy75MPsad9hbGxMvdo1+GPlugLJm6F5N8Tmgp88y7ZMFy5fY9SQfgC0adGEYWMn4eLk QJvmTQgIukvgnfvCYCgz6e3rxJnzJKekMG7kYOb8NIkVazdz6NhpwsIjGPzld4wZMZBJE0az5+BR Vq3fikKhyFNZdOHs5EBYxKtswyMj3727FOneW7rQZ285xc2vfRmCQambmZnSsU0L6rfpTny6Dn7a YxvVq1TE77b25Wxf2FYIk8tk2NnaEhEZhUQiISk5hTbdBmU7gi6ozRQvIyKZMPkXwctnfU7OaajV ap1/NzU1YdvfSxnz7U/C2uyyBbPSp55j2vkpZm7r6H3GD494xdXrtxjzXfZLdrlJb/GytRzds5Fd +w8TEvqCr0YMpFb1Koz9/meSkpMp5V6c3ZverXGrlCqk6WY9dulsT3i+Ae2hizWbtrN3y1/s2byK uLh41mzYxq2AIABeRrzi3MUr2X6gnjVvCTs3LCfwzn0iIqOYMlP7zSY8IjLHPmBvVzjDtZOjg2Bn BWHXueXS1evUr10TExNjDh07TVxcPEH3H9KqWUPKlirBDb/AAsmboXk3yOb0tHnwU63jatWsEUnJ yYSEvuCUlzc/fjcWcwszYSYIOdvXhUs+XLjkQ9nS7mxcuZjQF+HcCgji8ZMQfpjxG7Y21vy5YBYj B/dh9YZtWQppSFl0ERn1mjo1qmYbrtbofnfpQp+9ZeZDbNYxaFmvS/vWXL1+M4NjAthz8CgDer/b nTZsQC/MzEwBGD6oN/cfBRP+8hVh4REE3XvAN2OGC8so9na2FLa1MTij0yeNp2L5MgDUrFaZSRNG 64y318OTSV+PxsrKEtB+3C6ai2U3fZibmWFmakpwiNbIy5UuSaP6tYXw19GxFC/qhqmpSYE872Pm 7IXLVK1cgeaN6wt/cy9eVOcymSE8Dwtn1/7DTJ+k3eThYF+Y8JcRJCUnI5fJGNS3e4b4j58+o0aV SgBIpUb07d4pjyXJSvkypYiLS6Dn4DEMH/8Dh94udQLs9TjGkP49haVXqdSIUu7FhfDundoxfvIM ho2bzNSZ84mMigYwqA90bt8Kt7dLl7WqV6ZapfKc9/Z5+9yCsevCtjb89ssPFLIwB6Bv90506dBa Z9yLV3ypUa0S1SpX4MJlbT5Onb3I2BGDuOEfKMwI3mefS09B2Jz31euMHz2EE2cuAHDD7zZuLs40 b1Qf73TOSZ99lSxRTHjPhYS+IDomFmNjOU4O9jjYa1/4sW/ieBoSiomxMaB9N/y7xJufspw5f5lq VSrSuEEdQDtgzs17ND367O1jwCDnNKB3V/YdOp7l7wcOn6B96+ZYWVmSkprKHg9Pdm1YgffxvTRu UJdvps4W4n4zdTZF3Vw577mba2c92Lz6D5ydDP9NS8umDYXvHSWKFaFFkwY6463ZsA3/wLsc3LYW nzMeeO7dRG09I43cEB0Ty5JV69n/z2qO7d3MmJGD+GfnfiH8VkAQPtdvcfbQdlYs+rVAnvmx8iYu npETpjBqaD+unD7AtbMezJ3xQ76m+ivWbaFOzao0rl+bjVv3UKFcGc4d3cWuTSu5cu0m8QmJQtw5 C5cxamhfdqxfxvrlC/O8u1MX8QmJVK5YloDLx/G76InXkZ18/dUwAHxv+rNo2RpWLP6Vq6cP4n1i H/17dRHujYh8zZY1S/DzPoav1yG2/71McF459YHlazezcPY0zh3dxZyfJzNu0gxheayg7NraypKW TRthbW0FQI1qlalWpaLOuOEvX6FSqbh9557w7eSk10UqVSib4UX+PvtcegrC5ryv+FKtcgVOnD4P aFdJvC5ewcXZkcB0O+X02Vf1KhXx3LMJryM7Obp7Iye9LuJz3Q87O1s2r/6Dc0d3cdpjG5aWhYQN Fns8juLkaM95z12MHto/z2WJjoll9MSpfDduJD5nPDjjsZ0qFcvlphoF9Nnbx4BElGkXEXmHjbUV +/5Zzbjvf+bB4yeA9pvK/n/W0H/k18JmFl18M2Y4NjbWLPxzNcnJKRgbGzNmxEDcixflu2mf92BF RKSgEc/WExFJh4N9YeQyGc9ehAm7DK2tLJHJpES9jtZ7b5lS7jx+EkJycgqg/ebm6uwk7N4TEREx HHHmJCKSiS+H9adLxzYolUo0GoiLT2DF2s3CD4Czo0SxIsye/j02VpaoNRpkUineV6+zZNV6YTu+ iIiIYYjOSURERETko+P9blQXERERESkQZFINdhZqJMDrRCkK3QfcfDaIzklERETkI0UigXYVkujf UkntOiWwciiKRAJxkaFcvxbCLi8px+6Yo/4M17/EZT0RERGRjxBHCyV/DoihademSIp2AZMySND+ vkpDMiieoX7uweWDZ5m43ZqX8fIPnOOCRXROIiIiIh8ZThYK9o17jXvnAUjsaiPBDI3EDCRvf6Sr UQEpoEmC6ACeHv2HnittCP+MHJS4lfwTo6AULIu4unDj/JECyJFh9OzSgZWL5xgU97/OW0HwKSiL vk8+ZJu9j7r/kO1pJIHlPV7h3rwFRua2oA5BowlBon6MRBX89t9jJKoQUIciMTenRLMWLO/xCqnk 85lrvDfndHTPRuGIl5xUIMeMGMhjvws6j1FxcnTgwY1zbFq1+H1l1SDcXJ0zHNKYH9q0aJLhnLh/ adm0Ifv+WV0gz/gvSd/W/xXdOrXlp0kTMDIy4uKxPcjl70aMNapWoohrxuNz8qpQXJDtLvJ5MXHM cIb064GTowOHd6436B5D7LCteywN69piJJcR+fgOXruOok57BKrHoH4o/NOoHuN94BjPgwJAbkT9 evZ0KP3xnPCQX96bc5qzcBnPw14ChqlABgTdo1/PLln+3qf7F8LBsh+SiIhIfpn7x4fORoFSUIft pm/r/4qTZy7y14atqNVqBoyamOHk57EjBwkSJ5A/heLPsd1FCoYtO/ax//BxXkVGCdpO+jDUDgdX j8fI3Ir71+6xd40nZctaYKQIQ6MKAdVTUD1FowyF1OeUr2jGsR1nuHnCHyNzSwZVj8sx/U8Fg3fr 5VZZdOHsaYyaOJXSJUvoVIHMjPdVX3p3/QL34kWFI2KMjIzo0bk9m7fvzXBAYosmDZg4Zrj2l/tS KWs372DrrgOAdjr++EkI1atUxNrKElsbG/5v8XK6dGhNUTcXbKyt8fA8qT0pmOyVbTOfTO7s5Mjy RbOp1axTnuojL+hS9kyPXCZj/qwfqValAibGxjx7HsZ3037lVdRrqlQsz58LZgrKsADDB/WhbCl3 QaE3LS2Nr78aRo/O7TGWyzl/6SpzFi0XTjgwlH/b+sGjJxgbG/Pt2BF80a4FloUKERB4l2HjJgPa nUfzZk6lydtDKw8fP8OCpX/pTDNNoWDYgF4MG9gbuUzG7Tv3+eGX34TDhwf3665TJfeHiV/RqF5t SpYoRmJiEms372D86CFZFIr1KcumJ3O7O9rbMWPKRGrXrIqxXM6m7XtZvmYToF9BOTNjRwyibaum GBvL3x40G89fG7aydtOOXKu9zpr2HaEvwqlUviwWFmbY2lizZuN2DnmeyvLcfxWPvS5eoVL5slhb WfI6OoYfZvzGm7h4QCsL8/MPE3BxciQ1LY2N2/awfY+HkEaPzu35avgA7O0KE/smjn4jJhjUZunJ bf/R1+f1kR9lYn3tKZfLGTW0H+1bNcNYLufew8fMmr+UsPAIIKsS9IIlqxjUr4depWwAE6maqq7J qJUpXLsSRvGS9uxdcwMJCirXtqNFLzckErh+9hW3r0ejVsmpWNWVe3dfUKm4E5Vd0jCXqUhS5u0A 5o8Jg51TXpVFPU96ZVGB1IVGreHAkRP07dGJ+Uu0L6xmjepx/2Ew0ZkOI3z67DnjJ88gLDyC8mVK cXD7Wg4eOSGow3bt2Jaeg8eQlJzM0P492fzX74ycMIVz3lcpZGHOec/dHD5+hhdhL/Uq276P+sgN +pQ9QavuucfjKFNm/oZarWHZglmMGNxHqL+ccHLUHjraolM/5HI5yxbMZOJXw7N1GIYwYfQQKlUo S+d+o4iLi8fJwV4Ia928CSMm/MC02QuwtrLk8M71XLjko1NN08GuMIVtbWjRqR9SIyNWLP6VUYP7 smSVdvkkO5XcRcvW0KxxPeYsXCYIuaWlKbIoFOekLJsdyxbO4rrfbb6frv1+ZmlZSAjTp6Ccnjo1 q9G5Y2u69h+NQqHg5x++Jjk5hbWbduRZ7bVLh9b0GDyGuLh4ihVx5cjuDZz28s7ybNAqHu/cd5jf l2v1mBbM/pERg/qwZNV6rK0sWb9iAV9P0T7f3s6WLWuWEPsmDs+TXjSoU5Pvx49i6NhJPH4SgpOj A5FR0RRxdcmxzdKT2/6TU5/XRX6VifW15/hRgylbyp1OfUeQkpLKwD7d+Hv5Ajr3HYFKpR3YZlaC jnwdk6NStr2JAolEg0aRQLNW7sy72g5J7Zo0stiBXHGNpOgY0Eh49ewNmpL1uaUZyvXg60xreQo5 MUgkKuxNlTxL+PSdU66W9fKqLGoIEomEXfsP071Te+RvBbL69ezCzn2HsgjJPQkJFUYo9x4+Jup1 DM5OjkL48dPnhE7pH3iX2DdxgrNJSEziSUgoxYu4Cdd5VbZ9n/XxL/qUPQGu+t5CpVKj0Wi4cNkH NxfD1WI1Gg3rNu8AtOqWazftoEOb5vnKb9cv2rB01Xri3o7CIyKjhLCAoLvCadZv4uK54R+oV01z 1fp/0Gg0KFUqvC5ezSBNkV+V3JzUW3Xh5upMxfJl+HPVBhRKJQqlMoMImz4F5fSUL1MK/9t3haVI /9t3KFPKHci72uvRE2eFOn/2PIz4eN3PBu1J3Lv2HRaub/jdFuq2dfPGBN59IDw/6nUMazdtFyQj undux9bdB3j8RCva+a+9/4u+NstMbvpPTn1eF/lVJtbXnj06t2flui3Cae3bdh/E1MSEapXfnfCe J3VvCSiVSiQKBTJjC6wbj8S+alNcSjjQpLkNFnIjLEwkdOzmhHvFIthVaYJV01HIZOZIFGkolQok GK7p9DGTqx/h5lVZ1FCePnvOo+CntG7RmJv+QZQrU5ILl6/ROdNGiY5tW9Dti7YYv/0IbmtjjZHR OwcW+yZjPv9drhDymk7FMT/KtnmtD41GDWRVbpVIJFmWE/UpezrYF+ar4QMpU8odjVqNo6O9XvXZ zGKxSckpGWSkX0W9xtFetxKmoTg5OhD2UrdSZxaFYaUyW4mA+PiEDHlTKt+peuZWJVcXOam36sL5 7SxBoVTqDNenoJyeB4+DGdyvOxbmZiQlp9Cofh1uBbxVzM2j2msWpdJMKsfpiU9IzFAGleqd+rKz kwMvMzmc8JevcHF2fBvuiPfV67rT1dNmushN/8mpz+siv8rE+trT2cmRl6+iMoS/jIjU1tPbIxjz ou4dnSonPhFsUlJQa5SkSjRINBokChmaFDnBwWlIJBrcS5qgUWhQmWhQqCRIVGoUimTikyAq9fPQ k8uVc8qrsmhuZBR37T9Mv55dKF2yBPsOHcvysq5Tsxo/TZpA72HjhJHUtbMeGeIYOkrJWdlWP3mt jxdhERRxdUIikWTIa7Eirlk2Fuh7xh+/zcD3ZgAjxk9GpVIzsE83GtatBWhfDFJpxhe2nW1GNU8L czPMzEyFb0zOjvYZZjp5ISoqGhcnhywjagB1Ln7GrtbThjmp5Gatsqxp5aTeqovIqNc42Nshk+oe gGWnoJwZn+t++N70x2PH3zx/EY5/4F02/LMbyLvaa242t+iLq0tp1dXZifC3A47IyNe4ZKPDpq/N dObDwP5jSJ/XRWJSUr6UifW1Z2TUa1ydHTPYuYuzo1BPoKuecy5vstKIgDBT7IumolYnk2ysxlgl QaM0wvuyFJd6S9FI1PhcnY7GTY5CZkSKQoNKkURqYhpBL8xJVHwevxD6T0qRWQVSH8fPXKBS+TIM 7N2N3QeOZgm3t7MlPiGRyEjtqKZLxzZ5VoLMSdn2ffHgcTCRUdFM+WYMFuZmSCQSalStxOih/dij o8zZ4WBnx9OQUFQqNTbWVnTt2FYIex4WTmFbG2HEa21lSce2LbKkMWb4QCQSCXK5nNFDBwgjx9wo pqbnoOdJJo4ZjoW5GQCuLrqXlvJDTiq5r6NjKJfO3nQpFOdFvfXZ8zDuP3zM+NFDkEqNMDIyypVg 5r/IpFJaNWtM534jGTZuMktWrRdmMgWtMJxbTnl5U7liORq/7Qf2draMHtaffYeOAXDg6AkG9u5G 8aLaZXFbG+v3rvycnz6fH2Vifez18OTrr4Zhbqa184F9upGWlkZA4N1s7zFUKdvjfmHeRKWRmpjM 63gl8Qo1qhQJTx8kcv+yB/cvHeXJ/QTUKZCoUBMVn0pKYgpxUQo87uXtXfgx8p84p8wqkPpIS0vj 4JETBATd1Tn6PnP+Mo+Cn3LecxeHd66nRLEinM/jjriclG3fFyqVmi+/mYazoz2nPLZx4/wRfpn6 DTPnLRFmcIawYOlffDN2BKcObmXF4l/ZvvfdLsj4hERmz/+T9SsWsnXdUhbM/lF4wfzL5Ws3UKnV HNu7Ga/DO4iOjWX52k1A7hRT07N8zSYeBT/l2N7N+JzxYO7Pkw0uj6HkpJK7Yt0Whg3szWmPbdSr XV2nQnFe1Vu/njKTCuVK431iH1dPH6B3ty9ynX+ZXEbsmzhunDuCn/cxLp/az5J5v2BuZvZeFIZz Q0zsG0ZOmMK340Zy+eQ+dqxfzq59hwWpeu8rvqxct4X1Kxbic8aD3ZtWYm1p+V7zlJ8+nx9lYn2s WLuZ+w+DOXVwKxc8d9OiSQNGfT1V7ycNQ5Wyzz634dYjGbExSsLjFETEK0hLSsQsLYRYv7+I9VuN ieIFiqQUXsarCI9T8iYmFb8nEk49/3yck3h8kYjIf8z2v5exc98hPE96oVSpsLQsxJ/zZ3Ly7EV2 7jv0obP32fApKxMXLZTCj00TmFF4J1ZOTnzPDCoknuHmnWgkQK1qtgQZt+J35pAQEcXcmN7MO1+I kASzD531AkM8lVxE5D+mbGl37tx/JIyyZVIpjvZ2omJuAVOmlDtXr9/4BwAIAAAEbklEQVT6JJWJ QxNMmX3BjJiqT4lPMyHGKhk3JxXOjR1AAnJNKlcilIQnxKEIfcrM2w5EZP052SeNOHMSEfmPad64 Pt+MHYFEot0kotFo2LX/sM5vrCJ553NQJpZI5Ri51mWk+036uPpiaqL9EpOapmZ3WF3WBddAE+aL RvVplCc3iM5JRERE5CNHIgEbYyWOptpZ4KsUE2LT5LnZCP3JIS7riYiIiHzkaDQQkyojJrVQzpE/ Ez6PDfEiIiIiIp8VonMSEREREfnoEJ2TiIiIiMhHh+icREREREQ+OsQNESIiIiKfICVLlaJazToY SY1AAtGRUXidPg16TiU3t7CgY5duxMbEcPq4JwCVqlShTPmK2lNINBDzOhqv0yd0ni3YtWdvjE2M tRcaCWlpqfjdvEHIk2AAeg8YhFqtZt/O7VnubdepM1ZW1tzwuULw48c5lk90TiIiIiKfIDXr1icw IIB7QbcxNzWlfdfuVK1RnYBbWfXR/qVlm3ZZfuNlZ+/IjWtXCQ0JwdzCgnadOlOrbj18r17Rmcbj R4+4ec0HmUxG3YaNqVO/IaEhTwVnptFoKFO2HA8f3BfuMTU2xdLSyuDDkUFc1hMRERH5BDFCIoHw MO2h1UkpKaSlpmJsrJ3VdOjclbZfdMpwR72GjVBrIPp1RuWBC15nCA3R6nMlJSbyJjYWa5uMCga6 UCqV+Hh7I5GApfW78xXDw15QpkKFDHGr1qpJXJx+SZqsJRQRERER+cRQ8+L5c1q27UC5CpVo3roN RlIpfre0WltRkVFEvooQYru6uuFWtBhep45nEW/NjLWVDREREXrjgHaJsHGLFqhUKt7EvHM8gX7+ WFgUolChd7/JcitWjLuBt3Wo2GWPuKwnIiIi8gly93Ygjs4uVKpaFanUiDsBt1GmaaVXfK9eEuLJ ZMbUa9IEP19fkpOyl7UHaNCkKWqNiiD/W9nGKVW6DCVLl0aj1hAfH4fXyZMZwpMT40lKiKdKjZpc uXiBosWLgwZCQ0Ko27CRweUTnZOIiIjIJ4aZuTkt27cjKMCfe0FBOLk407hZC0zNTLnhey1D3Jbt 2hIZEUFwsH5hzbqNGuHs4srxI4f0fht6/OghN6/plyx5cP8+VWvUBKBilaq8CM1e0Ts7xGU9ERER kU+MkiVLo1KquBcUBEBE+EseP3iEW7HiWeJaW1vj4upG7wGD6D1gEM4urtgWLkzPfgOEOA2bNsfN rQgnjh7OcXZlCA/v3wOgXIVKWFpaEXAj+00a2SHOnEREREQ+MaJev6KCvArOzq68fBmGTCbDtagb CQnxANRt0BCFUsEtX1/2bN+W4d4mLVpiYmIqbCVv2rIVtraFOerhQVpqSoHlMeJlOFVqVCc+Lo6U tNynKzonERERkU8M7UzpPg2bNRM2OMTHx+HtdRaAwnYOqFSKHNOxtbXDydkFgK49e2UI27N9a77y 6H/jJi6ubtwJvJ2n+0XJDBERERGRjwq1Sil+cxIRERER+XhQq9WkJiXw/1a5vlndS7QvAAAAAElF TkSuQmCC "
       id="image2988"
       x="8.4670506"
       y="25.748171"
       style="stroke-width:1.96122" /><text
       xml:space="preserve"
       transform="scale(0.26458333)"
       id="text3690"
       style="font-size:28px;line-height:0.8;font-family:slave;-inkscape-font-specification:slave;text-align:justify;white-space:pre;shape-inside:url(#rect3692);display:inline;opacity:0.570083;fill:#2b5278;fill-opacity:1;stroke:#ff0000;stroke-width:6.04724" /></g><g
     inkscape:groupmode="layer"
     id="layer2"
     inkscape:label="Layer 2"
     style="display:inline"><rect
       style="display:inline;fill:#000000;stroke:none;stroke-width:0.455763"
       id="rect1024"
       width="59.121845"
       height="15.257251"
       x="7.4390769"
       y="8.5463743"
       rx="3.6614914"
       ry="3.440743" /><rect
       style="display:inline;fill:#f2f2f2;stroke:none;stroke-width:0.414257"
       id="rect1172"
       width="56.962563"
       height="13.082652"
       x="8.5187178"
       y="9.6336737"
       rx="0"
       ry="2.3537788" /><rect
       style="display:inline;fill:#000000;stroke:none;stroke-width:0.404665"
       id="rect2207"
       width="52.725166"
       height="4.217185"
       x="10.637415"
       y="50.920574"
       ry="0" /><text
       xml:space="preserve"
       style="font-style:normal;font-weight:normal;font-size:2.64583px;line-height:1.25;font-family:sans-serif;letter-spacing:0px;word-spacing:0px;display:inline;fill:#ffffff;fill-opacity:1;stroke:none;stroke-width:0.264583"
       x="37.531517"
       y="53.768482"
       id="text3050"><tspan
         sodipodi:role="line"
         id="tspan3048"
         style="font-size:2.64583px;text-align:center;text-anchor:middle;fill:#ffffff;stroke-width:0.264583"
         x="37.531517"
         y="53.768482">https://0x8.ch/HackersCardgame_2.0</tspan></text><rect
       style="display:inline;fill:#ececec;stroke:none;stroke-width:0.585104;stroke-miterlimit:4;stroke-dasharray:none"
       id="rect29724"
       width="18.430262"
       height="4.9443846"
       x="46.305717"
       y="44.931896"
       ry="0"
       rx="1.7786642" /><text
       xml:space="preserve"
       style="font-style:normal;font-weight:normal;font-size:3.88056px;line-height:1.25;font-family:sans-serif;letter-spacing:0px;word-spacing:0px;display:inline;fill:#000000;fill-opacity:1;stroke:none;stroke-width:0.290946"
       x="55.483902"
       y="48.674988"
       id="text27004-5"><tspan
         sodipodi:role="line"
         id="tspan27002-6"
         style="font-weight:bold;font-size:3.88056px;text-align:center;text-anchor:middle;fill:#000000;stroke:none;stroke-width:0.290946"
         x="55.483902"
         y="48.674988">in05</tspan></text><rect
       style="display:inline;fill:#000000;stroke:none;stroke-width:0.559657"
       id="rect20806"
       width="9.7512789"
       height="9.4695749"
       x="9.8518229"
       y="11.440212"
       ry="1.414894" /><rect
       style="display:inline;fill:#ffffff;stroke:none;stroke-width:0.499999"
       id="rect20724"
       width="8.7666445"
       height="8.4072285"
       x="10.34414"
       y="11.971386"
       ry="1.0408186" /><text
       xml:space="preserve"
       style="font-style:normal;font-weight:normal;font-size:7.93198px;line-height:1.25;font-family:sans-serif;letter-spacing:0px;word-spacing:0px;display:inline;fill:#000000;fill-opacity:1;stroke:none;stroke-width:0.1983"
       x="12.565024"
       y="18.947227"
       id="text20124"><tspan
         sodipodi:role="line"
         id="tspan20122"
         style="font-style:normal;font-variant:normal;font-weight:normal;font-stretch:normal;font-family:Caladea;-inkscape-font-specification:Caladea;stroke-width:0.1983"
         x="12.565024"
         y="18.947227">☠</tspan></text></g><g
     inkscape:groupmode="layer"
     id="layer3"
     inkscape:label="Title"
     style="display:inline"><text
       xml:space="preserve"
       style="font-style:normal;font-weight:normal;font-size:3.52778px;line-height:0.9;font-family:sans-serif;letter-spacing:0px;word-spacing:0px;display:inline;fill:#000000;fill-opacity:1;stroke:none;stroke-width:0.264583"
       x="42.759911"
       y="13.850389"
       id="text28351"><tspan
         sodipodi:role="line"
         style="font-weight:bold;font-size:3.52778px;text-align:center;text-anchor:middle;stroke-width:0.264583"
         x="42.759911"
         y="13.850389"
         id="tspan121994">Overlays am PC</tspan><tspan
         sodipodi:role="line"
         style="font-weight:bold;font-size:3.52778px;text-align:center;text-anchor:middle;stroke-width:0.264583"
         x="42.759911"
         y="17.025391"
         id="tspan2976">aus TriggerDatensatz</tspan><tspan
         sodipodi:role="line"
         style="font-weight:bold;font-size:3.52778px;text-align:center;text-anchor:middle;stroke-width:0.264583"
         x="42.759911"
         y="20.200392"
         id="tspan2978">des Gegenübers</tspan></text></g></svg>
