<?xml version="1.0" encoding="UTF-8" standalone="no"?>
<!-- Created with Inkscape (http://www.inkscape.org/) -->

<svg
   width="74mm"
   height="105mm"
   viewBox="0 0 74 105"
   version="1.1"
   id="svg5"
   inkscape:version="1.2.2 (b0a8486541, 2022-12-01)"
   sodipodi:docname="FTT17.svg"
   xmlns:inkscape="http://www.inkscape.org/namespaces/inkscape"
   xmlns:sodipodi="http://sodipodi.sourceforge.net/DTD/sodipodi-0.dtd"
   xmlns="http://www.w3.org/2000/svg"
   xmlns:svg="http://www.w3.org/2000/svg">
  <sodipodi:namedview
     id="namedview7"
     pagecolor="#ffffff"
     bordercolor="#666666"
     borderopacity="1.0"
     inkscape:pageshadow="2"
     inkscape:pageopacity="0.0"
     inkscape:pagecheckerboard="0"
     inkscape:document-units="mm"
     showgrid="false"
     inkscape:zoom="2.0989208"
     inkscape:cx="144.3599"
     inkscape:cy="191.05057"
     inkscape:window-width="1920"
     inkscape:window-height="1011"
     inkscape:window-x="0"
     inkscape:window-y="0"
     inkscape:window-maximized="1"
     inkscape:current-layer="layer2"
     inkscape:showpageshadow="2"
     inkscape:deskcolor="#d1d1d1" />
  <defs
     id="defs2">
    <rect
       x="31.304922"
       y="204.96759"
       width="205.86257"
       height="146.30523"
       id="rect17087" />
    <marker
       inkscape:isstock="true"
       style="overflow:visible"
       id="marker27024"
       refX="0"
       refY="0"
       orient="auto"
       inkscape:stockid="Arrow1Lend">
      <path
         transform="matrix(-0.8,0,0,-0.8,-10,0)"
         style="fill:#000000;fill-opacity:1;fill-rule:evenodd;stroke:#000000;stroke-width:1pt;stroke-opacity:1"
         d="M 0,0 5,-5 -12.5,0 5,5 Z"
         id="path27022" />
    </marker>
    <marker
       inkscape:isstock="true"
       style="overflow:visible"
       id="marker27024-2"
       refX="0"
       refY="0"
       orient="auto"
       inkscape:stockid="Arrow1Lend">
      <path
         inkscape:connector-curvature="0"
         transform="matrix(-0.8,0,0,-0.8,-10,0)"
         style="fill:#000000;fill-opacity:1;fill-rule:evenodd;stroke:#000000;stroke-width:1pt;stroke-opacity:1"
         d="M 0,0 5,-5 -12.5,0 5,5 Z"
         id="path27022-9" />
    </marker>
  </defs>
  <g
     inkscape:label="Layer 1"
     inkscape:groupmode="layer"
     id="layer1"
     style="display:inline">
    <rect
       style="fill:#ffffff;stroke:#000000;stroke-width:0.298259;stroke-miterlimit:4;stroke-dasharray:none"
       id="rect846"
       width="65"
       height="93.900375"
       x="4.5"
       y="5.5498133"
       rx="5.1956244"
       ry="0"
       inkscape:export-filename="../../png/DE/part2/FTT17.png"
       inkscape:export-xdpi="622.37488"
       inkscape:export-ydpi="622.37488" />
    <rect
       style="fill:#000000;stroke:none;stroke-width:0.470152"
       id="rect964"
       width="60.851757"
       height="89.722946"
       x="6.5741215"
       y="7.6385288"
       rx="3.9244702"
       ry="4.0016785" />
    <rect
       style="fill:#d7d7f4;stroke:none;stroke-width:0.475741"
       id="rect1717"
       width="56.906704"
       height="41.42675"
       x="8.546648"
       y="54.198826"
       ry="3.0964251" />
    <text
       xml:space="preserve"
       transform="matrix(0.26458333,0,0,0.26458333,1.3068987,1.6405857)"
       id="text17085"
       style="font-style:normal;font-weight:normal;font-size:8px;line-height:1.15;font-family:sans-serif;letter-spacing:0px;word-spacing:0px;white-space:pre;shape-inside:url(#rect17087);display:inline;fill:#000000;fill-opacity:1;stroke:none"
       x="0"
       y="0"><tspan
         x="31.304688"
         y="211.8458"
         id="tspan1867"><tspan
           style="font-family:monospace;-inkscape-font-specification:monospace"
           id="tspan1865">Dann haben die auch eine Landkarte der </tspan></tspan><tspan
         x="31.304688"
         y="221.24668"
         id="tspan1871"><tspan
           style="font-family:monospace;-inkscape-font-specification:monospace"
           id="tspan1869">Coping-Strategien von mir und versuchen </tspan></tspan><tspan
         x="31.304688"
         y="230.64756"
         id="tspan1875"><tspan
           style="font-family:monospace;-inkscape-font-specification:monospace"
           id="tspan1873">diese der Reihe nach zu sabotieren.
</tspan></tspan><tspan
         x="31.304688"
         y="240.04843"
         id="tspan1879"><tspan
           style="font-family:monospace;-inkscape-font-specification:monospace"
           id="tspan1877">
</tspan></tspan><tspan
         x="31.304688"
         y="249.44931"
         id="tspan1883"><tspan
           style="font-family:monospace;-inkscape-font-specification:monospace"
           id="tspan1881">Prärequisite: Action Recognition und </tspan></tspan><tspan
         x="31.304688"
         y="258.85019"
         id="tspan1887"><tspan
           style="font-family:monospace;-inkscape-font-specification:monospace"
           id="tspan1885">Action Prediction in der Wohnung, bzw auf </tspan></tspan><tspan
         x="31.304688"
         y="268.25107"
         id="tspan1891"><tspan
           style="font-family:monospace;-inkscape-font-specification:monospace"
           id="tspan1889">Neuralink / FTT </tspan></tspan></text>
    <rect
       style="display:inline;fill:#ffffff;stroke:none;stroke-width:0.498943"
       id="rect1232"
       width="57.226765"
       height="35"
       x="8.3866177"
       y="17.166599"
       rx="0"
       ry="0" />
    <g
       id="g546">
      <text
         xml:space="preserve"
         style="font-style:normal;font-variant:normal;font-weight:normal;font-stretch:normal;font-size:3.33104px;font-family:monospace;-inkscape-font-specification:monospace;text-align:center;text-anchor:middle;fill:#ff0000;stroke-width:2.09829"
         x="36.916725"
         y="35.390335"
         id="text4996"><tspan
           sodipodi:role="line"
           id="tspan4994"
           style="stroke-width:2.09829"
           x="36.916725"
           y="35.390335">FTT</tspan></text>
      <text
         xml:space="preserve"
         style="font-size:1.16773px;font-family:monospace;-inkscape-font-specification:monospace;text-align:center;text-anchor:middle;fill:#0000ff;stroke-width:0.735579"
         x="36.985989"
         y="36.537365"
         id="text7810"><tspan
           sodipodi:role="line"
           id="tspan7808"
           style="stroke-width:0.735579"
           x="36.985989"
           y="36.537365">Named Entity</tspan></text>
    </g>
    <g
       id="g546-8"
       style="display:inline"
       transform="translate(-20.599041,-6.5725785)">
      <text
         xml:space="preserve"
         style="font-style:normal;font-variant:normal;font-weight:normal;font-stretch:normal;font-size:3.33104px;font-family:monospace;-inkscape-font-specification:monospace;text-align:center;text-anchor:middle;fill:#ff0000;stroke-width:2.09829"
         x="36.916725"
         y="35.390335"
         id="text4996-4"><tspan
           sodipodi:role="line"
           id="tspan4994-0"
           style="stroke-width:2.09829"
           x="36.916725"
           y="35.390335">FTT</tspan></text>
      <text
         xml:space="preserve"
         style="font-size:1.16773px;font-family:monospace;-inkscape-font-specification:monospace;text-align:center;text-anchor:middle;fill:#0000ff;stroke-width:0.735579"
         x="36.985989"
         y="36.537365"
         id="text7810-0"><tspan
           sodipodi:role="line"
           id="tspan7808-8"
           style="stroke-width:0.735579"
           x="36.985989"
           y="36.537365">Named Entity</tspan></text>
    </g>
    <g
       id="g546-6"
       style="display:inline"
       transform="translate(-20.955584,1.1822232)">
      <text
         xml:space="preserve"
         style="font-style:normal;font-variant:normal;font-weight:normal;font-stretch:normal;font-size:3.33104px;font-family:monospace;-inkscape-font-specification:monospace;text-align:center;text-anchor:middle;fill:#ff0000;stroke-width:2.09829"
         x="36.916725"
         y="35.390335"
         id="text4996-8"><tspan
           sodipodi:role="line"
           id="tspan4994-2"
           style="stroke-width:2.09829"
           x="36.916725"
           y="35.390335">FTT</tspan></text>
      <text
         xml:space="preserve"
         style="font-size:1.16773px;font-family:monospace;-inkscape-font-specification:monospace;text-align:center;text-anchor:middle;fill:#0000ff;stroke-width:0.735579"
         x="36.985989"
         y="36.537365"
         id="text7810-3"><tspan
           sodipodi:role="line"
           id="tspan7808-85"
           style="stroke-width:0.735579"
           x="36.985989"
           y="36.537365">Named Entity</tspan></text>
    </g>
    <g
       id="g546-0"
       style="display:inline"
       transform="translate(-9.0114065,8.7587536)">
      <text
         xml:space="preserve"
         style="font-style:normal;font-variant:normal;font-weight:normal;font-stretch:normal;font-size:3.33104px;font-family:monospace;-inkscape-font-specification:monospace;text-align:center;text-anchor:middle;fill:#ff0000;stroke-width:2.09829"
         x="36.916725"
         y="35.390335"
         id="text4996-5"><tspan
           sodipodi:role="line"
           id="tspan4994-9"
           style="stroke-width:2.09829"
           x="36.916725"
           y="35.390335">FTT</tspan></text>
      <text
         xml:space="preserve"
         style="font-size:1.16773px;font-family:monospace;-inkscape-font-specification:monospace;text-align:center;text-anchor:middle;fill:#0000ff;stroke-width:0.735579"
         x="36.985989"
         y="36.537365"
         id="text7810-2"><tspan
           sodipodi:role="line"
           id="tspan7808-6"
           style="stroke-width:0.735579"
           x="36.985989"
           y="36.537365">Named Entity</tspan></text>
    </g>
    <g
       id="g546-85"
       style="display:inline"
       transform="translate(-23.183975,11.254552)">
      <text
         xml:space="preserve"
         style="font-style:normal;font-variant:normal;font-weight:normal;font-stretch:normal;font-size:3.33104px;font-family:monospace;-inkscape-font-specification:monospace;text-align:center;text-anchor:middle;fill:#ff0000;stroke-width:2.09829"
         x="36.916725"
         y="35.390335"
         id="text4996-2"><tspan
           sodipodi:role="line"
           id="tspan4994-8"
           style="stroke-width:2.09829"
           x="36.916725"
           y="35.390335">FTT</tspan></text>
      <text
         xml:space="preserve"
         style="font-size:1.16773px;font-family:monospace;-inkscape-font-specification:monospace;text-align:center;text-anchor:middle;fill:#0000ff;stroke-width:0.735579"
         x="36.985989"
         y="36.537365"
         id="text7810-36"><tspan
           sodipodi:role="line"
           id="tspan7808-7"
           style="stroke-width:0.735579"
           x="36.985989"
           y="36.537365">Named Entity</tspan></text>
    </g>
    <g
       id="g546-87"
       style="display:inline"
       transform="translate(4.6263482,8.2239397)">
      <text
         xml:space="preserve"
         style="font-style:normal;font-variant:normal;font-weight:normal;font-stretch:normal;font-size:3.33104px;font-family:monospace;-inkscape-font-specification:monospace;text-align:center;text-anchor:middle;fill:#ff0000;stroke-width:2.09829"
         x="36.916725"
         y="35.390335"
         id="text4996-26"><tspan
           sodipodi:role="line"
           id="tspan4994-6"
           style="stroke-width:2.09829"
           x="36.916725"
           y="35.390335">FTT</tspan></text>
      <text
         xml:space="preserve"
         style="font-size:1.16773px;font-family:monospace;-inkscape-font-specification:monospace;text-align:center;text-anchor:middle;fill:#0000ff;stroke-width:0.735579"
         x="36.985989"
         y="36.537365"
         id="text7810-29"><tspan
           sodipodi:role="line"
           id="tspan7808-70"
           style="stroke-width:0.735579"
           x="36.985989"
           y="36.537365">Named Entity</tspan></text>
    </g>
    <g
       id="g546-3"
       style="display:inline"
       transform="translate(14.787812,-3.1854237)">
      <text
         xml:space="preserve"
         style="font-style:normal;font-variant:normal;font-weight:normal;font-stretch:normal;font-size:3.33104px;font-family:monospace;-inkscape-font-specification:monospace;text-align:center;text-anchor:middle;fill:#ff0000;stroke-width:2.09829"
         x="36.916725"
         y="35.390335"
         id="text4996-7"><tspan
           sodipodi:role="line"
           id="tspan4994-23"
           style="stroke-width:2.09829"
           x="36.916725"
           y="35.390335">FTT</tspan></text>
      <text
         xml:space="preserve"
         style="font-size:1.16773px;font-family:monospace;-inkscape-font-specification:monospace;text-align:center;text-anchor:middle;fill:#0000ff;stroke-width:0.735579"
         x="36.985989"
         y="36.537365"
         id="text7810-5"><tspan
           sodipodi:role="line"
           id="tspan7808-1"
           style="stroke-width:0.735579"
           x="36.985989"
           y="36.537365">Named Entity</tspan></text>
    </g>
    <g
       id="g546-7"
       style="display:inline"
       transform="translate(-8.7439996,-6.8399855)">
      <text
         xml:space="preserve"
         style="font-style:normal;font-variant:normal;font-weight:normal;font-stretch:normal;font-size:3.33104px;font-family:monospace;-inkscape-font-specification:monospace;text-align:center;text-anchor:middle;fill:#ff0000;stroke-width:2.09829"
         x="36.916725"
         y="35.390335"
         id="text4996-89"><tspan
           sodipodi:role="line"
           id="tspan4994-4"
           style="stroke-width:2.09829"
           x="36.916725"
           y="35.390335">FTT</tspan></text>
      <text
         xml:space="preserve"
         style="font-size:1.16773px;font-family:monospace;-inkscape-font-specification:monospace;text-align:center;text-anchor:middle;fill:#0000ff;stroke-width:0.735579"
         x="36.985989"
         y="36.537365"
         id="text7810-1"><tspan
           sodipodi:role="line"
           id="tspan7808-64"
           style="stroke-width:0.735579"
           x="36.985989"
           y="36.537365">Named Entity</tspan></text>
    </g>
    <g
       id="g546-35"
       style="display:inline"
       transform="translate(15.85744,4.7476492)">
      <text
         xml:space="preserve"
         style="font-style:normal;font-variant:normal;font-weight:normal;font-stretch:normal;font-size:3.33104px;font-family:monospace;-inkscape-font-specification:monospace;text-align:center;text-anchor:middle;fill:#ff0000;stroke-width:2.09829"
         x="36.916725"
         y="35.390335"
         id="text4996-48"><tspan
           sodipodi:role="line"
           id="tspan4994-7"
           style="stroke-width:2.09829"
           x="36.916725"
           y="35.390335">FTT</tspan></text>
      <text
         xml:space="preserve"
         style="font-size:1.16773px;font-family:monospace;-inkscape-font-specification:monospace;text-align:center;text-anchor:middle;fill:#0000ff;stroke-width:0.735579"
         x="36.985989"
         y="36.537365"
         id="text7810-33"><tspan
           sodipodi:role="line"
           id="tspan7808-5"
           style="stroke-width:0.735579"
           x="36.985989"
           y="36.537365">Named Entity</tspan></text>
    </g>
    <g
       id="g546-01"
       style="display:inline"
       transform="translate(2.9327708,-7.1965281)">
      <text
         xml:space="preserve"
         style="font-style:normal;font-variant:normal;font-weight:normal;font-stretch:normal;font-size:3.33104px;font-family:monospace;-inkscape-font-specification:monospace;text-align:center;text-anchor:middle;fill:#ff0000;stroke-width:2.09829"
         x="36.916725"
         y="35.390335"
         id="text4996-45"><tspan
           sodipodi:role="line"
           id="tspan4994-70"
           style="stroke-width:2.09829"
           x="36.916725"
           y="35.390335">FTT</tspan></text>
      <text
         xml:space="preserve"
         style="font-size:1.16773px;font-family:monospace;-inkscape-font-specification:monospace;text-align:center;text-anchor:middle;fill:#0000ff;stroke-width:0.735579"
         x="36.985989"
         y="36.537365"
         id="text7810-7"><tspan
           sodipodi:role="line"
           id="tspan7808-89"
           style="stroke-width:0.735579"
           x="36.985989"
           y="36.537365">Named Entity</tspan></text>
    </g>
    <text
       xml:space="preserve"
       style="font-style:normal;font-variant:normal;font-weight:normal;font-stretch:normal;font-size:2.69235px;font-variant-ligatures:normal;font-variant-caps:normal;font-variant-numeric:normal;font-variant-east-asian:normal;text-align:justify;display:inline;fill:#ff6600;stroke-width:1.17413"
       x="20.789944"
       y="53.299644"
       id="text1250"
       transform="rotate(-30)"><tspan
         sodipodi:role="line"
         id="tspan1248"
         style="font-weight:bold;fill:#a02c2c;stroke-width:1.17413"
         x="20.789944"
         y="53.299644">Sabotage</tspan></text>
    <text
       xml:space="preserve"
       style="font-style:normal;font-variant:normal;font-weight:normal;font-stretch:normal;font-size:2.69235px;font-variant-ligatures:normal;font-variant-caps:normal;font-variant-numeric:normal;font-variant-east-asian:normal;text-align:justify;display:inline;fill:#ff6600;stroke-width:1.17413"
       x="-4.6128497"
       y="52.170223"
       id="text1250-3"
       transform="rotate(-30)"><tspan
         sodipodi:role="line"
         id="tspan1248-9"
         style="font-weight:bold;fill:#a02c2c;stroke-width:1.17413"
         x="-4.6128497"
         y="52.170223">Sabotage</tspan></text>
    <text
       xml:space="preserve"
       style="font-style:normal;font-variant:normal;font-weight:normal;font-stretch:normal;font-size:2.69235px;font-variant-ligatures:normal;font-variant-caps:normal;font-variant-numeric:normal;font-variant-east-asian:normal;text-align:justify;display:inline;fill:#ff6600;stroke-width:1.17413"
       x="-10.685658"
       y="39.35236"
       id="text1250-4"
       transform="rotate(-30)"><tspan
         sodipodi:role="line"
         id="tspan1248-6"
         style="font-weight:bold;fill:#a02c2c;stroke-width:1.17413"
         x="-10.685658"
         y="39.35236">Sabotage</tspan></text>
    <text
       xml:space="preserve"
       style="font-style:normal;font-variant:normal;font-weight:normal;font-stretch:normal;font-size:2.69235px;font-variant-ligatures:normal;font-variant-caps:normal;font-variant-numeric:normal;font-variant-east-asian:normal;text-align:justify;display:inline;fill:#ff6600;stroke-width:1.17413"
       x="18.953979"
       y="61.188053"
       id="text1250-45"
       transform="rotate(-30)"><tspan
         sodipodi:role="line"
         id="tspan1248-5"
         style="font-weight:bold;fill:#a02c2c;stroke-width:1.17413"
         x="18.953979"
         y="61.188053">Sabotage</tspan></text>
  </g>
  <g
     inkscape:groupmode="layer"
     id="layer2"
     inkscape:label="Layer 2"
     style="display:inline">
    <rect
       style="display:inline;fill:#000000;stroke:none;stroke-width:0.455763"
       id="rect1024"
       width="59.121845"
       height="15.257251"
       x="7.4390769"
       y="8.5463743"
       rx="3.6614914"
       ry="3.440743" />
    <rect
       style="display:inline;fill:#f2f2f2;stroke:none;stroke-width:0.414257"
       id="rect1172"
       width="56.962563"
       height="13.082652"
       x="8.5187178"
       y="9.6336737"
       rx="0"
       ry="2.3537788" />
    <rect
       style="display:inline;fill:#000000;stroke:none;stroke-width:0.404665"
       id="rect2207"
       width="52.725166"
       height="4.217185"
       x="10.637415"
       y="50.920574"
       ry="0" />
    <text
       xml:space="preserve"
       style="font-style:normal;font-weight:normal;font-size:2.64583px;line-height:1.25;font-family:sans-serif;letter-spacing:0px;word-spacing:0px;display:inline;fill:#ffffff;fill-opacity:1;stroke:none;stroke-width:0.264583"
       x="37.531517"
       y="53.768482"
       id="text3050"><tspan
         sodipodi:role="line"
         id="tspan3048"
         style="font-size:2.64583px;text-align:center;text-anchor:middle;fill:#ffffff;stroke-width:0.264583"
         x="37.531517"
         y="53.768482">https://0x8.ch/HackersCardgame_2.0</tspan></text>
    <rect
       style="display:inline;fill:#ececec;stroke:none;stroke-width:0.585104;stroke-miterlimit:4;stroke-dasharray:none;opacity:0.70837221"
       id="rect29724"
       width="18.430262"
       height="4.9443846"
       x="46.305717"
       y="44.931896"
       ry="0"
       rx="1.7786642" />
    <text
       xml:space="preserve"
       style="font-style:normal;font-weight:normal;font-size:3.88056px;line-height:1.25;font-family:sans-serif;letter-spacing:0px;word-spacing:0px;display:inline;fill:#000000;fill-opacity:1;stroke:none;stroke-width:0.290946"
       x="55.483902"
       y="48.674988"
       id="text27004-5"><tspan
         sodipodi:role="line"
         id="tspan27002-6"
         style="font-weight:bold;font-size:3.88056px;text-align:center;text-anchor:middle;fill:#000000;stroke:none;stroke-width:0.290946"
         x="55.483902"
         y="48.674988">FTT17</tspan></text>
    <rect
       style="display:inline;fill:#000000;stroke:none;stroke-width:0.559657"
       id="rect20806"
       width="9.7512789"
       height="9.4695749"
       x="9.8518229"
       y="11.440212"
       ry="1.414894" />
    <rect
       style="display:inline;fill:#ffffff;stroke:none;stroke-width:0.499999"
       id="rect20724"
       width="8.7666445"
       height="8.4072285"
       x="10.34414"
       y="11.971386"
       ry="1.0408186" />
    <text
       xml:space="preserve"
       style="font-style:normal;font-weight:normal;font-size:7.93198px;line-height:1.25;font-family:sans-serif;letter-spacing:0px;word-spacing:0px;display:inline;fill:#000000;fill-opacity:1;stroke:none;stroke-width:0.1983"
       x="11.138847"
       y="19.1255"
       id="text20124"><tspan
         sodipodi:role="line"
         id="tspan20122"
         style="font-style:normal;font-variant:normal;font-weight:normal;font-stretch:normal;font-size:7.93198px;font-variant-ligatures:normal;font-variant-caps:normal;font-variant-numeric:normal;font-variant-east-asian:normal;stroke-width:0.1983"
         x="11.138847"
         y="19.1255">☠</tspan></text>
  </g>
  <g
     inkscape:groupmode="layer"
     id="layer3"
     inkscape:label="Title"
     style="display:inline">
    <text
       xml:space="preserve"
       style="font-style:normal;font-weight:normal;font-size:4.58611px;line-height:0.9;font-family:sans-serif;letter-spacing:0px;word-spacing:0px;display:inline;fill:#000000;fill-opacity:1;stroke:none;stroke-width:0.338439"
       x="42.738621"
       y="15.612224"
       id="text28351"><tspan
         sodipodi:role="line"
         style="font-weight:bold;font-size:4.58611px;text-align:center;text-anchor:middle;stroke-width:0.338439"
         x="42.738621"
         y="15.612224"
         id="tspan76392">Coping-Strategie</tspan><tspan
         sodipodi:role="line"
         style="font-weight:bold;font-size:4.58611px;text-align:center;text-anchor:middle;stroke-width:0.338439"
         x="42.738621"
         y="19.739723"
         id="tspan588">Landkarte</tspan></text>
  </g>
</svg>
