<?xml version="1.0" encoding="UTF-8" standalone="no"?>
<!-- Created with Inkscape (http://www.inkscape.org/) -->

<svg
   width="74mm"
   height="105mm"
   viewBox="0 0 74 105"
   version="1.1"
   id="svg5"
   inkscape:version="1.2.2 (b0a8486541, 2022-12-01)"
   sodipodi:docname="FTT11.svg"
   inkscape:export-filename="../../png/DE/FTT11.png"
   inkscape:export-xdpi="622.37488"
   inkscape:export-ydpi="622.37488"
   xmlns:inkscape="http://www.inkscape.org/namespaces/inkscape"
   xmlns:sodipodi="http://sodipodi.sourceforge.net/DTD/sodipodi-0.dtd"
   xmlns="http://www.w3.org/2000/svg"
   xmlns:svg="http://www.w3.org/2000/svg">
  <sodipodi:namedview
     id="namedview7"
     pagecolor="#ffffff"
     bordercolor="#666666"
     borderopacity="1.0"
     inkscape:pageshadow="2"
     inkscape:pageopacity="0.0"
     inkscape:pagecheckerboard="0"
     inkscape:document-units="mm"
     showgrid="false"
     inkscape:zoom="2.0989208"
     inkscape:cx="87.425881"
     inkscape:cy="202.00858"
     inkscape:window-width="1920"
     inkscape:window-height="1011"
     inkscape:window-x="3840"
     inkscape:window-y="32"
     inkscape:window-maximized="1"
     inkscape:current-layer="layer1"
     inkscape:showpageshadow="2"
     inkscape:deskcolor="#d1d1d1" />
  <defs
     id="defs2">
    <rect
       x="31.304922"
       y="204.96759"
       width="205.86257"
       height="146.30523"
       id="rect17087" />
    <marker
       inkscape:isstock="true"
       style="overflow:visible"
       id="marker27024"
       refX="0"
       refY="0"
       orient="auto"
       inkscape:stockid="Arrow1Lend">
      <path
         transform="matrix(-0.8,0,0,-0.8,-10,0)"
         style="fill:#000000;fill-opacity:1;fill-rule:evenodd;stroke:#000000;stroke-width:1pt;stroke-opacity:1"
         d="M 0,0 5,-5 -12.5,0 5,5 Z"
         id="path27022" />
    </marker>
    <marker
       inkscape:isstock="true"
       style="overflow:visible"
       id="marker27024-2"
       refX="0"
       refY="0"
       orient="auto"
       inkscape:stockid="Arrow1Lend">
      <path
         inkscape:connector-curvature="0"
         transform="matrix(-0.8,0,0,-0.8,-10,0)"
         style="fill:#000000;fill-opacity:1;fill-rule:evenodd;stroke:#000000;stroke-width:1pt;stroke-opacity:1"
         d="M 0,0 5,-5 -12.5,0 5,5 Z"
         id="path27022-9" />
    </marker>
  </defs>
  <g
     inkscape:label="Layer 1"
     inkscape:groupmode="layer"
     id="layer1"
     style="display:inline">
    <rect
       style="fill:#ffffff;stroke:#000000;stroke-width:0.298259;stroke-miterlimit:4;stroke-dasharray:none"
       id="rect846"
       width="65"
       height="93.900375"
       x="4.5"
       y="5.5498133"
       rx="5.1956244"
       ry="0"
       inkscape:export-filename="../../png/DE/part2/FTT08.png"
       inkscape:export-xdpi="622.37488"
       inkscape:export-ydpi="622.37488" />
    <rect
       style="fill:#000000;stroke:none;stroke-width:0.470152"
       id="rect964"
       width="60.851757"
       height="89.722946"
       x="6.5741215"
       y="7.6385288"
       rx="3.9244702"
       ry="4.0016785" />
    <rect
       style="fill:#d7d7f4;stroke:none;stroke-width:0.475741"
       id="rect1717"
       width="56.906704"
       height="41.42675"
       x="8.546648"
       y="54.198826"
       ry="3.0964251" />
    <text
       xml:space="preserve"
       transform="matrix(0.26458333,0,0,0.26458333,1.3068987,1.6405857)"
       id="text17085"
       style="font-style:normal;font-weight:normal;font-size:9.33333px;line-height:0.9;font-family:sans-serif;letter-spacing:0px;word-spacing:0px;white-space:pre;shape-inside:url(#rect17087);display:inline;fill:#000000;fill-opacity:1;stroke:none"
       x="0"
       y="0"><tspan
         x="31.304688"
         y="211.82563"
         id="tspan6499"><tspan
           dx="0 0 0 0 0 0 0 0 0 0 3.0926442 0 0 0 0 0 3.0926404 0 0 0 0 0 0 3.0926404 0 0 3.0926404 0 0 0 3.0926404"
           style="font-family:monospace;-inkscape-font-specification:monospace;text-align:justify"
           id="tspan6497">Neuralink FTT's müssen in dem EEG-</tspan></tspan><tspan
         x="31.304688"
         y="220.22562"
         id="tspan6503"><tspan
           dx="0 0 0 0 0 0 0 0 0 1.065804 0 0 0 0 0 0 1.0658078 0 0 0 1.0658078 0 0 0 0 0 0 0 0 1.0658002"
           style="font-family:monospace;-inkscape-font-specification:monospace;text-align:justify"
           id="tspan6501">Wirrwarr zuerst mal gefunden werden. </tspan></tspan><tspan
         x="31.304688"
         y="228.62562"
         id="tspan6507"><tspan
           dx="0 0 0 0 0.71053743 0 0 0 0 0 0 0.71053743 0 0 0 0.71053743 0 0 0 0 0 0.71053743 0 0 0 0.71054506 0 0 0 0 0 0 0 0 0.71054506"
           style="font-family:monospace;-inkscape-font-specification:monospace;text-align:justify"
           id="tspan6505">Das machen die Täter zum Beispiel in </tspan></tspan><tspan
         x="31.304688"
         y="237.02561"
         id="tspan6511"><tspan
           dx="0 0 0 0 5.3326459 0 0 0 5.3326459 0 0 0 5.3326459 0 0 0 0 0 0 0 0 5.3326459 0 0 0 0 0 0 0 0 5.3326459"
           style="font-family:monospace;-inkscape-font-specification:monospace;text-align:justify"
           id="tspan6509">dem sie den Autisten Lehrling an </tspan></tspan><tspan
         x="31.304688"
         y="245.42561"
         id="tspan6515"><tspan
           dx="0 0 0 0 0 0 0.85264444 0 0 0 0.85264635 0 0 0 0 0 0 0 0 0 0 0.85265017 0 0 0.85265017 0 0 0 0.85265017"
           style="font-family:monospace;-inkscape-font-specification:monospace;text-align:justify"
           id="tspan6513">einem CAD &quot;schulen&quot;. Im CAD (bereits </tspan></tspan><tspan
         x="31.304688"
         y="253.8256"
         id="tspan6519"><tspan
           dx="0 0 0 0 0 10.932646 0 0 10.932644 0 0 0 0 0 0 0 10.932652 0 0 0 10.932636 0 0 0 0 10.932652"
           style="font-family:monospace;-inkscape-font-specification:monospace;text-align:justify"
           id="tspan6517">1997 in AutoCAD 14) gibt es </tspan></tspan><tspan
         x="31.304688"
         y="262.22559"
         id="tspan6523"><tspan
           dx="0 0 0 0 0 0 0 0 0 0 0 0 0 2.4658093 0 0 0 2.4658093 0 0 0 0 0 0 0 2.4658093 0 0 0 0 0 0 2.4658093"
           style="font-family:monospace;-inkscape-font-specification:monospace;text-align:justify"
           id="tspan6521">Grundfiguren wie Strich, Kreis, ... </tspan></tspan><tspan
         x="31.304688"
         y="270.62559"
         id="tspan6527"><tspan
           dx="0 0 0 0 0 0 0 5.2658086 0 0 0 0 5.2658048 0 0 0 0 0 0 0 0 0 5.2658124 0 0 0 5.2657971"
           style="font-family:monospace;-inkscape-font-specification:monospace;text-align:justify"
           id="tspan6525">welche nach hunderten von Abrufen </tspan></tspan><tspan
         x="31.304688"
         y="279.02558"
         id="tspan6531"><tspan
           style="font-family:monospace;-inkscape-font-specification:monospace;text-align:justify"
           id="tspan6529">dann ermittelt werden.
</tspan></tspan><tspan
         x="31.304688"
         y="287.42557"
         id="tspan6535"><tspan
           style="font-family:monospace;-inkscape-font-specification:monospace;text-align:justify"
           id="tspan6533">
</tspan></tspan><tspan
         x="31.304688"
         y="295.82557"
         id="tspan6549"><tspan
           style="fill:#ff0000"
           id="tspan6537">Kontrollwahn </tspan><tspan
           style="fill:#ff0000"
           id="tspan6539">⧼</tspan><tspan
           style="fill:#ff0000"
           id="tspan6541">==?==</tspan><tspan
           style="fill:#ff0000"
           id="tspan6543">⧽</tspan><tspan
           style="fill:#ff0000"
           id="tspan6545"> Gewissen,Schuld</tspan><tspan
           style="font-family:monospace;-inkscape-font-specification:monospace;text-align:justify"
           id="tspan6547">
</tspan></tspan><tspan
         x="31.304688"
         y="304.86384"
         id="tspan6553"><tspan
           style="font-family:monospace;-inkscape-font-specification:monospace;text-align:justify"
           id="tspan6551">
</tspan></tspan><tspan
         x="31.304688"
         y="313.26383"
         id="tspan6557"><tspan
           dx="0 0 0 0 0 15.065809 0 0 0 0 15.065807 0 0 0 15.065815 0 0 0 15.065815"
           style="font-family:monospace;-inkscape-font-specification:monospace;text-align:justify"
           id="tspan6555">Oder will man den Autisten </tspan></tspan><tspan
         x="31.304688"
         y="321.66383"
         id="tspan6561"><tspan
           dx="0 0 0 0 0 0 0 0 0 0 0 0 5.154408 0 0 0 0 0 0 0 0 0 0 0 0 0 0 5.154408 0 0 0 5.154408"
           style="font-family:monospace;-inkscape-font-specification:monospace;text-align:justify"
           id="tspan6559">adaptieren, fremdbestimmen und zum </tspan></tspan><tspan
         x="31.304688"
         y="330.06382"
         id="tspan6565"><tspan
           dx="0 0 0 0 0 0 0 0 2.4658055 0 0 0 2.4658017 0 0 0 0 0 0 0 0 2.4658093 0 0 0 0 0 0 0 2.4658093"
           style="font-family:monospace;-inkscape-font-specification:monospace;text-align:justify"
           id="tspan6563">Roboter ähm Soldaten machen, obwohl </tspan></tspan><tspan
         x="31.304688"
         y="338.46381"
         id="tspan6571"><tspan
           style="font-weight:bold;fill:#ff0000"
           id="tspan6567">Krieg</tspan><tspan
           dx="0 6.6658082 0 0 0 0 0 0 0 0 0 0 6.665812 0 0 0 6.6658044 0 0 0 6.6658196"
           style="font-family:monospace;-inkscape-font-specification:monospace;text-align:justify"
           id="tspan6569"> vermutlich für die meisten </tspan></tspan><tspan
         x="31.304688"
         y="346.86381"
         id="tspan6579"><tspan
           style="font-family:monospace;-inkscape-font-specification:monospace;text-align:justify"
           id="tspan6573">Autisten </tspan><tspan
           style="font-weight:bold;fill:#008000"
           id="tspan6575">unlogisch</tspan><tspan
           style="font-family:monospace;-inkscape-font-specification:monospace;text-align:justify"
           id="tspan6577"> wäre ???</tspan></tspan></text>
    <rect
       style="display:inline;fill:#ffffff;stroke:none;stroke-width:0.498943"
       id="rect1232"
       width="57.226765"
       height="35"
       x="8.3866177"
       y="17.166599"
       rx="0"
       ry="0" />
    <text
       xml:space="preserve"
       style="font-style:normal;font-variant:normal;font-weight:normal;font-stretch:normal;font-size:20.5999px;font-family:monospace;-inkscape-font-specification:monospace;text-align:center;text-anchor:middle;fill:#ff0000;stroke-width:12.9763"
       x="37.735058"
       y="41.555321"
       id="text4996"><tspan
         sodipodi:role="line"
         id="tspan4994"
         style="stroke-width:12.9763"
         x="37.735058"
         y="41.555321">FTT</tspan></text>
    <text
       xml:space="preserve"
       style="font-size:4.04408px;font-family:monospace;-inkscape-font-specification:monospace;text-align:center;text-anchor:middle;fill:#0000ff;stroke-width:2.54745"
       x="37.47057"
       y="44.254669"
       id="text7810"><tspan
         sodipodi:role="line"
         id="tspan7808"
         style="stroke-width:2.54745;font-weight:bold"
         x="37.47057"
         y="44.254669">Grund-Vokkabular</tspan></text>
  </g>
  <g
     inkscape:groupmode="layer"
     id="layer2"
     inkscape:label="Layer 2"
     style="display:inline">
    <rect
       style="display:inline;fill:#000000;stroke:none;stroke-width:0.455763"
       id="rect1024"
       width="59.121845"
       height="15.257251"
       x="7.4390769"
       y="8.5463743"
       rx="3.6614914"
       ry="3.440743" />
    <rect
       style="display:inline;fill:#f2f2f2;stroke:none;stroke-width:0.414257"
       id="rect1172"
       width="56.962563"
       height="13.082652"
       x="8.5187178"
       y="9.6336737"
       rx="0"
       ry="2.3537788" />
    <rect
       style="display:inline;fill:#000000;stroke:none;stroke-width:0.404665"
       id="rect2207"
       width="52.725166"
       height="4.217185"
       x="10.637415"
       y="50.920574"
       ry="0" />
    <text
       xml:space="preserve"
       style="font-style:normal;font-weight:normal;font-size:2.64583px;line-height:1.25;font-family:sans-serif;letter-spacing:0px;word-spacing:0px;display:inline;fill:#ffffff;fill-opacity:1;stroke:none;stroke-width:0.264583"
       x="37.531517"
       y="53.768482"
       id="text3050"><tspan
         sodipodi:role="line"
         id="tspan3048"
         style="font-size:2.64583px;text-align:center;text-anchor:middle;fill:#ffffff;stroke-width:0.264583"
         x="37.531517"
         y="53.768482">https://0x8.ch/HackersCardgame_2.0</tspan></text>
    <rect
       style="display:inline;fill:#ececec;stroke:none;stroke-width:0.585104;stroke-miterlimit:4;stroke-dasharray:none;opacity:0.70837221"
       id="rect29724"
       width="18.430262"
       height="4.9443846"
       x="46.305717"
       y="44.931896"
       ry="0"
       rx="1.7786642" />
    <text
       xml:space="preserve"
       style="font-style:normal;font-weight:normal;font-size:3.88056px;line-height:1.25;font-family:sans-serif;letter-spacing:0px;word-spacing:0px;display:inline;fill:#000000;fill-opacity:1;stroke:none;stroke-width:0.290946"
       x="55.483902"
       y="48.674988"
       id="text27004-5"><tspan
         sodipodi:role="line"
         id="tspan27002-6"
         style="font-weight:bold;font-size:3.88056px;text-align:center;text-anchor:middle;fill:#000000;stroke:none;stroke-width:0.290946"
         x="55.483902"
         y="48.674988">FTT11</tspan></text>
    <rect
       style="display:inline;fill:#000000;stroke:none;stroke-width:0.559657"
       id="rect20806"
       width="9.7512789"
       height="9.4695749"
       x="9.8518229"
       y="11.440212"
       ry="1.414894" />
    <rect
       style="display:inline;fill:#ffffff;stroke:none;stroke-width:0.499999"
       id="rect20724"
       width="8.7666445"
       height="8.4072285"
       x="10.34414"
       y="11.971386"
       ry="1.0408186" />
    <text
       xml:space="preserve"
       style="font-style:normal;font-weight:normal;font-size:7.93198px;line-height:1.25;font-family:sans-serif;letter-spacing:0px;word-spacing:0px;display:inline;fill:#000000;fill-opacity:1;stroke:none;stroke-width:0.1983"
       x="12.565024"
       y="18.947227"
       id="text20124"><tspan
         sodipodi:role="line"
         id="tspan20122"
         style="font-style:normal;font-variant:normal;font-weight:normal;font-stretch:normal;font-family:Caladea;-inkscape-font-specification:Caladea;stroke-width:0.1983"
         x="12.565024"
         y="18.947227">☠</tspan></text>
  </g>
  <g
     inkscape:groupmode="layer"
     id="layer3"
     inkscape:label="Title"
     style="display:inline">
    <text
       xml:space="preserve"
       style="font-style:normal;font-weight:normal;font-size:4.23333px;line-height:1;font-family:sans-serif;letter-spacing:0px;word-spacing:0px;display:inline;fill:#000000;fill-opacity:1;stroke:none;stroke-width:0.264583"
       x="42.759911"
       y="15.437889"
       id="text28351"
       inkscape:export-filename="../../png/DE/part2/FTT11.png"
       inkscape:export-xdpi="622.37488"
       inkscape:export-ydpi="622.37488"><tspan
         sodipodi:role="line"
         style="font-weight:bold;font-size:4.23333px;text-align:center;text-anchor:middle;stroke-width:0.264583"
         x="42.759911"
         y="15.437889"
         id="tspan15693">FTT's inital finden</tspan><tspan
         sodipodi:role="line"
         style="font-weight:bold;font-size:4.23333px;text-align:center;text-anchor:middle;stroke-width:0.264583"
         x="42.759911"
         y="19.671219"
         id="tspan4815">FTT Grund-Symbole</tspan></text>
  </g>
</svg>
