<?xml version="1.0" encoding="UTF-8" standalone="no"?>
<!-- Created with Inkscape (http://www.inkscape.org/) -->

<svg
   width="74mm"
   height="105mm"
   viewBox="0 0 74 105"
   version="1.1"
   id="svg5"
   inkscape:version="1.2.2 (b0a8486541, 2022-12-01)"
   sodipodi:docname="MOD04.svg"
   xml:space="preserve"
   xmlns:inkscape="http://www.inkscape.org/namespaces/inkscape"
   xmlns:sodipodi="http://sodipodi.sourceforge.net/DTD/sodipodi-0.dtd"
   xmlns="http://www.w3.org/2000/svg"
   xmlns:svg="http://www.w3.org/2000/svg"><sodipodi:namedview
     id="namedview7"
     pagecolor="#ffffff"
     bordercolor="#666666"
     borderopacity="1.0"
     inkscape:pageshadow="2"
     inkscape:pageopacity="0.0"
     inkscape:pagecheckerboard="0"
     inkscape:document-units="mm"
     showgrid="false"
     inkscape:zoom="1.0000001"
     inkscape:cx="-144.49999"
     inkscape:cy="44.999997"
     inkscape:window-width="1920"
     inkscape:window-height="1011"
     inkscape:window-x="0"
     inkscape:window-y="0"
     inkscape:window-maximized="1"
     inkscape:current-layer="layer1"
     inkscape:showpageshadow="2"
     inkscape:deskcolor="#d1d1d1" /><defs
     id="defs2"><marker
       style="overflow:visible"
       id="Arrow1L"
       refX="0"
       refY="0"
       orient="auto-start-reverse"
       inkscape:stockid="Arrow1L"
       markerWidth="8.75"
       markerHeight="5"
       viewBox="0 0 8.75 5"
       inkscape:isstock="true"
       inkscape:collect="always"
       preserveAspectRatio="xMidYMid"><path
         style="fill:context-stroke;fill-rule:evenodd;stroke:none"
         d="M 0,0 5,-5 -12.5,0 5,5 Z"
         id="arrow1L"
         transform="scale(-0.5)" /></marker><rect
       x="31.304922"
       y="204.96759"
       width="205.86257"
       height="146.30523"
       id="rect17087" /><marker
       inkscape:isstock="true"
       style="overflow:visible"
       id="marker27024"
       refX="0"
       refY="0"
       orient="auto"
       inkscape:stockid="Arrow1Lend"><path
         transform="matrix(-0.8,0,0,-0.8,-10,0)"
         style="fill:#000000;fill-opacity:1;fill-rule:evenodd;stroke:#000000;stroke-width:1pt;stroke-opacity:1"
         d="M 0,0 5,-5 -12.5,0 5,5 Z"
         id="path27022" /></marker><marker
       inkscape:isstock="true"
       style="overflow:visible"
       id="marker27024-2"
       refX="0"
       refY="0"
       orient="auto"
       inkscape:stockid="Arrow1Lend"><path
         inkscape:connector-curvature="0"
         transform="matrix(-0.8,0,0,-0.8,-10,0)"
         style="fill:#000000;fill-opacity:1;fill-rule:evenodd;stroke:#000000;stroke-width:1pt;stroke-opacity:1"
         d="M 0,0 5,-5 -12.5,0 5,5 Z"
         id="path27022-9" /></marker></defs><g
     inkscape:label="Layer 1"
     inkscape:groupmode="layer"
     id="layer1"
     style="display:inline"><rect
       style="fill:#ffffff;stroke:#000000;stroke-width:0.298259;stroke-miterlimit:4;stroke-dasharray:none"
       id="rect846"
       width="65"
       height="93.900375"
       x="4.5"
       y="5.5498133"
       rx="5.1956244"
       ry="0"
       inkscape:export-filename="../../png/DE/part2/MOD02.png"
       inkscape:export-xdpi="622.37488"
       inkscape:export-ydpi="622.37488" /><rect
       style="fill:#000000;stroke:none;stroke-width:0.470152"
       id="rect964"
       width="60.851757"
       height="89.722946"
       x="6.5741215"
       y="7.6385288"
       rx="3.9244702"
       ry="4.0016785" /><rect
       style="fill:#d7d7f4;stroke:none;stroke-width:0.475741"
       id="rect1717"
       width="56.906704"
       height="41.42675"
       x="8.546648"
       y="54.198826"
       ry="3.0964251" /><text
       xml:space="preserve"
       transform="matrix(0.26458333,0,0,0.26458333,1.3068987,1.6405857)"
       id="text17085"
       style="font-style:normal;font-weight:normal;font-size:8px;line-height:0.95;font-family:sans-serif;letter-spacing:0px;word-spacing:0px;white-space:pre;shape-inside:url(#rect17087);display:inline;fill:#000000;fill-opacity:1;stroke:none"
       x="0"
       y="0"><tspan
         x="31.304688"
         y="211.0458"
         id="tspan30339"><tspan
           dx="0 0 0 0 3.110527 0 0 0 0 3.110527 0 0 0 3.110527 0 0 0 0 0 3.110527 0 0 0 0 0 0 0 0 0 0 3.1105347 0 0 0 0 3.1105194"
           style="font-family:monospace;-inkscape-font-specification:monospace;text-align:justify"
           id="tspan30337">Oft wird das immer schlimmer, also z.B. </tspan></tspan><tspan
         x="31.304688"
         y="218.84667"
         id="tspan30343"><tspan
           dx="0 0 0 0 3.4657898 0 0 0 0 0 0 0 0 0 0 0 0 0 0 0 0 3.4657898 0 0 0 0 3.4657898 0 0 0 3.4657898"
           style="font-family:monospace;-inkscape-font-specification:monospace;text-align:justify"
           id="tspan30341">die Cyber-Würgekette oder der induzierte </tspan></tspan><tspan
         x="31.304688"
         y="226.64754"
         id="tspan30347"><tspan
           dx="0 0 0 0 0 0 0 0.71052551 0 0 0 0 0.71052551 0 0 0 0.71052551 0 0 0 0 0 0 0 0 0.71052551 0 0 0 0 0 0 0 0 0 0.71052551 0 0 0 0 0.71052551"
           style="font-family:monospace;-inkscape-font-specification:monospace;text-align:justify"
           id="tspan30345">Husten oder das Prostata Implantat wird so </tspan></tspan><tspan
         x="31.304688"
         y="234.44842"
         id="tspan30351"><tspan
           dx="0 0 0 0 0 0 0 0 0 0 0 0 4.6926346 0 0 0 0 4.6926346 0 0 0 4.692627 0 0 0 0 0 0 0 0 0 4.6926422 0 0 0 4.692627"
           style="font-family:monospace;-inkscape-font-specification:monospace;text-align:justify"
           id="tspan30349">eingestellt dass ich permanent auf die </tspan></tspan><tspan
         x="31.304688"
         y="242.24929"
         id="tspan30355"><tspan
           dx="0 0 0 0 0 0 0 0 0 3.110527 0 0 0 0 0 3.110527 0 0 0 0 0 0 3.110527 0 0 0 0 3.1105347 0 0 0 0 3.1105347 0 0 3.1105194"
           style="font-family:monospace;-inkscape-font-specification:monospace;text-align:justify"
           id="tspan30353">Toilette muss, obwohl kaum 50ml da drin </tspan></tspan><tspan
         x="31.304688"
         y="250.05016"
         id="tspan30359"><tspan
           style="font-family:monospace;-inkscape-font-specification:monospace;text-align:justify"
           id="tspan30357">sind.
</tspan></tspan><tspan
         x="31.304688"
         y="257.85104"
         id="tspan30363"><tspan
           dx="0 0 0 0 2.3105259 0 0 0 0 0 0 0 0 0 0 2.3105316 0 0 0 0 2.310524 0 0 0 0 2.3105316 0 0 0 2.3105164 0 0 0 0 0 2.3105316"
           style="font-family:monospace;-inkscape-font-specification:monospace;text-align:justify"
           id="tspan30361">Das impliziert auch dass die Täter nicht </tspan></tspan><tspan
         x="31.304688"
         y="265.65191"
         id="tspan30367"><tspan
           dx="0 0 0 0 0 0 0 3.7326317 0 0 0 0 0 0 0 0 0 0 0 3.7326279 0 0 0 0 0 3.7326279 0 0 0 0 3.7326355 0 0 0 3.7326355"
           style="font-family:monospace;-inkscape-font-specification:monospace;text-align:justify"
           id="tspan30365">gerade intelligent sind, dass die Täter </tspan></tspan><tspan
         x="31.304688"
         y="273.45278"
         id="tspan30371"><tspan
           dx="0 0 0 0 0 0 0 0 0 0 0 2.7726326 0 0 0 0 2.7726364 0 0 0 2.7726288 0 0 0 0 0 0 2.7726288 0 0 0 0 0 0 2.7726288"
           style="font-family:monospace;-inkscape-font-specification:monospace;text-align:justify"
           id="tspan30369">vielleicht auch nur einige wenige Cyber-</tspan></tspan><tspan
         x="31.304688"
         y="281.25365"
         id="tspan30375"><tspan
           dx="0 0 0 0 0 0 0 7.0657921 0 0 0 0 0 0 7.0657883 0 0 0 0 0 7.0657883 0 0 0 0 0 0 0 0 0 0 0 0 7.0657959"
           style="font-family:monospace;-inkscape-font-specification:monospace;text-align:justify"
           id="tspan30373">Waffen haben, diese Cyber-Waffen aber </tspan></tspan><tspan
         x="31.304688"
         y="289.05453"
         id="tspan30379"><tspan
           style="font-family:monospace;-inkscape-font-specification:monospace;text-align:justify"
           id="tspan30377">gemeinsam mit anderen missbraucht.
</tspan></tspan><tspan
         x="31.304688"
         y="296.8554"
         id="tspan30383"><tspan
           dx="0 0 0 0 0 14.265797 0 0 0 0 0 0 0 0 0 0 0 14.2658 0 0 0 14.2658 0 0 0 14.265793"
           style="font-family:monospace;-inkscape-font-specification:monospace;text-align:justify"
           id="tspan30381">Dann kommentiere ich als Autist </tspan></tspan><tspan
         x="31.304688"
         y="304.65627"
         id="tspan30387"><tspan
           dx="0 0 0 0 0 0 0 0 0 0 0 0 0 0 0 8.2657928 0 0 0 0 0 8.2657928 0 0 0 0 0 8.2657928 0 0 8.2657928"
           style="font-family:monospace;-inkscape-font-specification:monospace;text-align:justify"
           id="tspan30385">logischerweise diese Dinge in meiner </tspan></tspan><tspan
         x="31.304688"
         y="312.45714"
         id="tspan30391"><tspan
           dx="0 0 0 0 0 0 0 0 0 17.865799 0 0 0 0 0 0 0 17.865799 0 0 0 17.865799 0 0 0 17.865799"
           style="font-family:monospace;-inkscape-font-specification:monospace;text-align:justify"
           id="tspan30389">Privaten Wohnung was die mit </tspan></tspan><tspan
         x="31.304688"
         y="320.25802"
         id="tspan30395"><tspan
           dx="0 0 0 0 0 0 0 0 0 0 0 0 0 0 0 0 7.8210526 0 0 0 0 0 0 0 0 0 0 7.8210449 0 0 0 0 0 0 7.8210602"
           style="font-family:monospace;-inkscape-font-specification:monospace;text-align:justify"
           id="tspan30393">RaumÜberwachung vermutlich hören, dann </tspan></tspan><tspan
         x="31.304688"
         y="328.05889"
         id="tspan30399"><tspan
           dx="0 0 0 0 0 0 0 1.5105247 0 0 0 1.5105286 0 0 0 0 0 0 0 0 0 0 0 1.5105286 0 0 0 0 0 1.5105133 0 0 1.5105286 0 0 0 1.5105286"
           style="font-family:monospace;-inkscape-font-specification:monospace;text-align:justify"
           id="tspan30397">werden die agressiver. Hätte so ein Täter </tspan></tspan><tspan
         x="31.304688"
         y="335.85976"
         id="tspan30403"><tspan
           dx="0 0 0 0 0 7.1105289 0 0 0 0 0 0 0 7.1105347 0 0 0 0 0 7.110527 0 0 0 7.1105347 0 0 0 7.1105194 0 0 0 7.1105347"
           style="font-family:monospace;-inkscape-font-specification:monospace;text-align:justify"
           id="tspan30401">eine Pistole würde ich bei dem auf </tspan></tspan><tspan
         x="31.304688"
         y="343.66064"
         id="tspan30407"><tspan
           style="font-family:monospace;-inkscape-font-specification:monospace;text-align:justify"
           id="tspan30405">Amoklauf spekulieren, also Waffe einziehen</tspan></tspan></text><rect
       style="display:inline;fill:#ffffff;stroke:none;stroke-width:0.498943"
       id="rect1232"
       width="57.226765"
       height="35"
       x="8.3866177"
       y="17.166599"
       rx="0"
       ry="0" /><text
       xml:space="preserve"
       style="font-size:4.89627px;font-family:monospace;-inkscape-font-specification:monospace;text-align:center;text-anchor:middle;display:inline;fill:#0000ff;stroke-width:3.08426"
       x="36.953487"
       y="45.025333"
       id="text7810"><tspan
         sodipodi:role="line"
         id="tspan7808"
         style="stroke-width:3.08426"
         x="36.953487"
         y="45.025333">MODIFIER</tspan></text><text
       xml:space="preserve"
       style="font-size:2.11667px;line-height:0.8;font-family:monospace;-inkscape-font-specification:monospace;text-align:center;text-anchor:middle;display:inline;fill:#0000ff;stroke-width:3.08426"
       x="37.070557"
       y="47.048458"
       id="text12060"><tspan
         sodipodi:role="line"
         id="tspan12058"
         style="font-size:2.11667px;stroke-width:3.08426"
         x="37.070557"
         y="47.048458">in Kombination mit</tspan><tspan
         sodipodi:role="line"
         style="font-size:2.11667px;stroke-width:3.08426"
         x="37.070557"
         y="48.741795"
         id="tspan12627">vielen</tspan><tspan
         sodipodi:role="line"
         style="font-size:2.11667px;stroke-width:3.08426"
         x="37.070557"
         y="50.435131"
         id="tspan12062">anderen Karten</tspan></text><path
       style="fill:#ff0000;stroke:#000000;stroke-width:0.4;marker-end:url(#Arrow1L);stroke-dasharray:none"
       d="M 11.989448,36.172468 H 61.196262"
       id="path9900" /><path
       style="fill:#ff0000;stroke:#000000;stroke-width:0.4;stroke-dasharray:none"
       d="m 14.615441,33.393567 v 5.173586"
       id="path11812" /><path
       style="fill:#ff0000;stroke:#ff0000;stroke-width:0.4;stroke-dasharray:none"
       d="m 43.143817,33.393567 v 5.173586"
       id="path11814" /><path
       style="fill:#ff0000;stroke:#000000;stroke-width:0.4;stroke-dasharray:none"
       d="m 26.16383,33.393567 v 5.173586"
       id="path11816" /><path
       style="fill:#ff0000;stroke:#000000;stroke-width:0.4;stroke-dasharray:none"
       d="m 34.58386,33.393567 v 5.173586"
       id="path11818" /><path
       style="fill:#ff0000;stroke:#ff0000;stroke-width:0.4;stroke-dasharray:none"
       d="m 45.120558,33.393567 v 5.173586"
       id="path11820" /><path
       style="fill:#ff0000;stroke:#ff0000;stroke-width:0.4;stroke-dasharray:none"
       d="m 47.190584,33.393567 v 5.173586"
       id="path11822" /><path
       style="fill:#ff0000;stroke:#ff0000;stroke-width:0.4;stroke-dasharray:none"
       d="m 49.260609,33.393567 v 5.173586"
       id="path11824" /><path
       style="fill:#ff0000;stroke:#000000;stroke-width:0.4;stroke-dasharray:none"
       d="m 55.034804,33.393567 v 5.173586"
       id="path11826" /><g
       id="g11996"><path
         style="fill:none;stroke:#000000;stroke-width:0.284365;stroke-dasharray:none"
         d="m 42.530769,32.506926 c 0.551069,-1.813892 3.63288,0.349826 3.796465,-1.566303"
         id="path11990"
         sodipodi:nodetypes="cc" /><path
         style="fill:none;stroke:#000000;stroke-width:0.284365;stroke-dasharray:none"
         d="m 50.22952,32.506926 c -0.551069,-1.813892 -3.63288,0.349826 -3.796465,-1.566303"
         id="path11992"
         sodipodi:nodetypes="cc" /></g><text
       xml:space="preserve"
       style="font-size:1.62455px;line-height:0.8;fill:#ff0000;stroke:#000000;stroke-width:0.307002;stroke-dasharray:none"
       x="46.414566"
       y="26.585798"
       id="text12000"
       inkscape:export-filename="../../png/DE/part2/MOD04.png"
       inkscape:export-xdpi="622.37488"
       inkscape:export-ydpi="622.37488"><tspan
         sodipodi:role="line"
         id="tspan11998"
         style="text-align:center;text-anchor:middle;fill:#ff0000;stroke:none;stroke-width:0.307002"
         x="46.414566"
         y="26.585798">ganz häufig in </tspan><tspan
         sodipodi:role="line"
         style="text-align:center;text-anchor:middle;fill:#ff0000;stroke:none;stroke-width:0.307002"
         x="46.414566"
         y="27.885441"
         id="tspan12004">kurzer Zeit impliziert</tspan><tspan
         sodipodi:role="line"
         style="text-align:center;text-anchor:middle;fill:#ff0000;stroke:none;stroke-width:0.307002"
         x="46.414566"
         y="29.185085"
         id="tspan12006">Gegenpartei massiv</tspan><tspan
         sodipodi:role="line"
         style="text-align:center;text-anchor:middle;fill:#ff0000;stroke:none;stroke-width:0.307002"
         x="46.414566"
         y="30.484728"
         id="tspan12008">aggressiv</tspan><tspan
         sodipodi:role="line"
         style="text-align:center;text-anchor:middle;fill:#ff0000;stroke:none;stroke-width:0.307002"
         x="46.414566"
         y="31.784372"
         id="tspan12002" /></text></g><g
     inkscape:groupmode="layer"
     id="layer2"
     inkscape:label="Layer 2"
     style="display:inline"><rect
       style="display:inline;fill:#000000;stroke:none;stroke-width:0.455763"
       id="rect1024"
       width="59.121845"
       height="15.257251"
       x="7.4390769"
       y="8.5463743"
       rx="3.6614914"
       ry="3.440743" /><rect
       style="display:inline;fill:#f2f2f2;stroke:none;stroke-width:0.414257"
       id="rect1172"
       width="56.962563"
       height="13.082652"
       x="8.5187178"
       y="9.6336737"
       rx="0"
       ry="2.3537788" /><rect
       style="display:inline;fill:#000000;stroke:none;stroke-width:0.404665"
       id="rect2207"
       width="52.725166"
       height="4.217185"
       x="10.637415"
       y="50.920574"
       ry="0" /><text
       xml:space="preserve"
       style="font-style:normal;font-weight:normal;font-size:2.64583px;line-height:1.25;font-family:sans-serif;letter-spacing:0px;word-spacing:0px;display:inline;fill:#ffffff;fill-opacity:1;stroke:none;stroke-width:0.264583"
       x="37.531517"
       y="53.768482"
       id="text3050"><tspan
         sodipodi:role="line"
         id="tspan3048"
         style="font-size:2.64583px;text-align:center;text-anchor:middle;fill:#ffffff;stroke-width:0.264583"
         x="37.531517"
         y="53.768482">https://0x8.ch/HackersCardgame_2.0</tspan></text><rect
       style="display:inline;fill:#ececec;stroke:none;stroke-width:0.585104;stroke-miterlimit:4;stroke-dasharray:none;opacity:0.70837221"
       id="rect29724"
       width="18.430262"
       height="4.9443846"
       x="46.305717"
       y="44.931896"
       ry="0"
       rx="1.7786642" /><text
       xml:space="preserve"
       style="font-style:normal;font-weight:normal;font-size:3.88056px;line-height:1.25;font-family:sans-serif;letter-spacing:0px;word-spacing:0px;display:inline;fill:#000000;fill-opacity:1;stroke:none;stroke-width:0.290946"
       x="55.483902"
       y="48.674988"
       id="text27004-5"><tspan
         sodipodi:role="line"
         id="tspan27002-6"
         style="font-weight:bold;font-size:3.88056px;text-align:center;text-anchor:middle;fill:#000000;stroke:none;stroke-width:0.290946"
         x="55.483902"
         y="48.674988">MOD04</tspan></text><rect
       style="display:inline;fill:#000000;stroke:none;stroke-width:0.559657"
       id="rect20806"
       width="9.7512789"
       height="9.4695749"
       x="9.8518229"
       y="11.440212"
       ry="1.414894" /><rect
       style="display:inline;fill:#ffffff;stroke:none;stroke-width:0.499999"
       id="rect20724"
       width="8.7666445"
       height="8.4072285"
       x="10.34414"
       y="11.971386"
       ry="1.0408186" /><text
       xml:space="preserve"
       style="font-style:normal;font-weight:normal;font-size:7.93198px;line-height:1.25;font-family:sans-serif;letter-spacing:0px;word-spacing:0px;display:inline;fill:#000000;fill-opacity:1;stroke:none;stroke-width:0.1983"
       x="12.565024"
       y="18.947227"
       id="text20124"><tspan
         sodipodi:role="line"
         id="tspan20122"
         style="font-style:normal;font-variant:normal;font-weight:normal;font-stretch:normal;font-family:Caladea;-inkscape-font-specification:Caladea;stroke-width:0.1983"
         x="12.565024"
         y="18.947227">☠</tspan></text></g><g
     inkscape:groupmode="layer"
     id="layer3"
     inkscape:label="Title"
     style="display:inline"><text
       xml:space="preserve"
       style="font-style:normal;font-weight:normal;font-size:4.05694px;line-height:0.9;font-family:sans-serif;letter-spacing:0px;word-spacing:0px;display:inline;fill:#000000;fill-opacity:1;stroke:none;stroke-width:0.264583"
       x="42.759911"
       y="15.437889"
       id="text28351"><tspan
         sodipodi:role="line"
         style="font-weight:bold;font-size:4.05694px;text-align:center;text-anchor:middle;stroke-width:0.264583"
         x="42.759911"
         y="15.437889"
         id="tspan1376">Anzahl</tspan><tspan
         sodipodi:role="line"
         style="font-weight:bold;font-size:4.05694px;text-align:center;text-anchor:middle;stroke-width:0.264583"
         x="42.759911"
         y="19.089134"
         id="tspan9835">Iterationen</tspan></text></g></svg>
